time,gFx,gFy,gFz,TgF
4.904,1.1121,-0.127,-0.0167,1.119
4.908,1.0931,-0.1271,-0.0231,1.101
4.909,1.0722,-0.1293,-0.029,1.08
4.912,1.0503,-0.1306,-0.0344,1.0590000000000002
4.914,1.0289,-0.1372,-0.0442,1.0390000000000001
4.918,1.0055,-0.1433,-0.0443,1.0170000000000001
4.92,0.983,-0.1485,-0.0408,0.995
4.922,0.9612,-0.1571,-0.0408,0.975
4.924,0.9406,-0.1646,-0.0389,0.956
4.926,0.9206,-0.1752,-0.0326,0.938
4.929,0.9031,-0.1842,-0.0281,0.922
4.932,0.8876,-0.1966,-0.0281,0.91
4.934,0.8696,-0.2072,-0.0223,0.894
4.936,0.8534,-0.2177,-0.0081,0.8809999999999999
4.939,0.8398,-0.2271,0.0016,0.87
4.942,0.8285,-0.2351,0.0178,0.861
4.944,0.8186,-0.2412,0.0334,0.8540000000000001
4.946,0.8111,-0.2447,0.0495,0.8490000000000001
4.949,0.808,-0.2443,0.0685,0.847
4.951,0.8073,-0.2448,0.0896,0.848
4.953,0.8164,-0.2423,0.1082,0.858
4.956,0.8284,-0.2348,0.1268,0.87
4.958,0.8453,-0.2259,0.1405,0.8859999999999999
4.961,0.8636,-0.2105,0.1488,0.9009999999999999
4.964,0.8761,-0.1976,0.1498,0.9109999999999999
4.966,0.8873,-0.1886,0.1484,0.919
4.968,0.8931,-0.1836,0.1489,0.924
4.972,0.8969,-0.1796,0.1518,0.927
4.973,0.8998,-0.1733,0.1572,0.93
4.976,0.8996,-0.1679,0.1626,0.929
4.978,0.9048,-0.1635,0.1723,0.935
4.98,0.9085,-0.1561,0.1895,0.941
4.983,0.9127,-0.1477,0.2003,0.946
4.986,0.9188,-0.1384,0.2149,0.9540000000000001
4.988,0.925,-0.1305,0.2247,0.961
4.99,0.9307,-0.1251,0.2326,0.9670000000000001
4.993,0.935,-0.1201,0.2404,0.973
4.995,0.9413,-0.1167,0.2443,0.9790000000000001
4.998,0.9432,-0.1141,0.2492,0.982
5.0,0.9431,-0.1088,0.2531,0.982
5.003,0.9449,-0.1034,0.258,0.985
5.005,0.9438,-0.0975,0.2643,0.985
5.011,0.9437,-0.0892,0.2688,0.985
5.012,0.9431,-0.0844,0.2722,0.985
5.012,0.9445,-0.0789,0.2771,0.987
5.015,0.9429,-0.0711,0.279,0.986
5.017,0.9424,-0.0657,0.279,0.985
5.023,0.9385,-0.0643,0.2771,0.981
5.024,0.9359,-0.0594,0.2751,0.977
5.025,0.934,-0.0555,0.2717,0.9740000000000001
5.027,0.9315,-0.055,0.2673,0.971
5.03,0.9321,-0.0506,0.2595,0.9690000000000001
5.032,0.9296,-0.0472,0.2527,0.9640000000000001
5.034,0.9316,-0.0437,0.2467,0.965
5.037,0.9341,-0.0403,0.2389,0.965
5.039,0.9385,-0.0363,0.2326,0.968
5.043,0.9454,-0.0333,0.2262,0.973
5.044,0.9527,-0.0292,0.2204,0.978
5.047,0.9659,-0.0251,0.2175,0.99
5.049,0.9772,-0.0211,0.215,1.001
5.052,0.9903,-0.017,0.2136,1.013
5.054,1.0059,-0.011,0.2097,1.028
5.057,1.0244,-0.0054,0.2111,1.046
5.059,1.0405,0.0016,0.2077,1.061
5.062,1.0566,0.0068,0.2058,1.077
5.065,1.0698,0.0147,0.2049,1.089
5.067,1.0858,0.0208,0.2024,1.105
5.069,1.1013,0.0303,0.2039,1.12
5.071,1.1149,0.0398,0.2039,1.1340000000000001
5.074,1.129,0.0463,0.2035,1.148
5.076,1.1426,0.0548,0.2039,1.162
5.079,1.1606,0.0624,0.2039,1.18
5.081,1.1752,0.0694,0.2035,1.195
5.083,1.1893,0.0754,0.2025,1.209
5.087,1.2049,0.0815,0.2016,1.224
5.088,1.2215,0.0861,0.202,1.2409999999999999
5.092,1.2356,0.0911,0.2011,1.255
5.094,1.2517,0.0962,0.2011,1.271
5.096,1.2673,0.1003,0.2006,1.287
5.099,1.282,0.1044,0.1971,1.301
5.101,1.2981,0.1061,0.1967,1.317
5.103,1.3157,0.1087,0.1952,1.335
5.106,1.3298,0.1089,0.1913,1.348
5.11,1.348,0.1086,0.1903,1.3659999999999999
5.111,1.3661,0.1064,0.1898,1.383
5.113,1.3851,0.1071,0.1928,1.403
5.116,1.4071,0.1063,0.1948,1.425
5.118,1.4272,0.1046,0.1977,1.445
5.121,1.4491,0.1068,0.2031,1.4669999999999999
5.123,1.4672,0.1041,0.2056,1.485
5.125,1.4843,0.1038,0.2031,1.5019999999999998
5.128,1.4985,0.102,0.2017,1.515
5.131,1.5138,0.1007,0.1978,1.53
5.135,1.5276,0.098,0.1948,1.5430000000000001
5.136,1.5403,0.0971,0.1924,1.555
5.138,1.553,0.0978,0.189,1.568
5.14,1.5648,0.0955,0.1846,1.579
5.146,1.5741,0.0956,0.1802,1.587
5.146,1.5839,0.0977,0.1763,1.597
5.147,1.5937,0.0993,0.1738,1.6059999999999999
5.258,1.599,0.1027,0.1719,1.6119999999999999
5.259,1.6048,0.1087,0.1704,1.618
5.259,1.6067,0.1156,0.1695,1.62
5.26,1.6086,0.122,0.1719,1.6219999999999999
5.26,1.607,0.1303,0.1709,1.621
5.26,1.602,0.138,0.1738,1.617
5.26,1.5931,0.1512,0.1788,1.61
5.261,1.5856,0.1624,0.1856,1.605
5.261,1.5785,0.177,0.192,1.6
5.261,1.5705,0.1881,0.1964,1.594
5.261,1.5669,0.1993,0.1998,1.5919999999999999
5.262,1.5648,0.2076,0.1998,1.591
5.262,1.5657,0.213,0.2013,1.5930000000000002
5.262,1.5677,0.213,0.1973,1.594
5.262,1.5727,0.2077,0.1934,1.598
5.263,1.5772,0.1989,0.191,1.601
5.263,1.5847,0.1858,0.1905,1.607
5.263,1.5923,0.1654,0.1954,1.6130000000000002
5.263,1.6003,0.1423,0.2023,1.619
5.264,1.6078,0.1155,0.2116,1.626
5.264,1.6144,0.0881,0.2267,1.633
5.264,1.62,0.0588,0.2438,1.639
5.265,1.6221,0.0308,0.2609,1.643
5.265,1.6232,0.0053,0.2775,1.6469999999999998
5.265,1.6213,-0.0183,0.2965,1.6480000000000001
5.265,1.6188,-0.0339,0.3171,1.65
5.266,1.6139,-0.0453,0.3337,1.649
5.266,1.6099,-0.0532,0.3499,1.6480000000000001
5.266,1.6039,-0.0552,0.368,1.646
5.266,1.5973,-0.0524,0.385,1.6440000000000001
5.267,1.5854,-0.0452,0.4007,1.636
5.267,1.5749,-0.0361,0.4119,1.6280000000000001
5.267,1.5594,-0.0197,0.4236,1.6159999999999999
5.267,1.5406,-0.0018,0.4325,1.6
5.268,1.5188,0.019,0.4423,1.5819999999999999
5.268,1.4968,0.0419,0.4535,1.565
5.268,1.4759,0.068,0.4653,1.5490000000000002
5.269,1.4535,0.0903,0.4721,1.531
5.269,1.4342,0.1111,0.4755,1.515
5.269,1.4184,0.1286,0.4775,1.5019999999999998
5.269,1.404,0.1455,0.477,1.49
5.27,1.3917,0.1567,0.4726,1.4780000000000002
5.27,1.3819,0.163,0.4672,1.4680000000000002
5.27,1.3711,0.1677,0.4628,1.4569999999999999
5.271,1.3627,0.1696,0.4588,1.4480000000000002
5.271,1.3638,0.1687,0.454,1.4469999999999998
5.271,1.3654,0.1628,0.452,1.4469999999999998
5.271,1.3723,0.1546,0.4525,1.453
5.272,1.3851,0.1449,0.4549,1.465
5.272,1.3975,0.1333,0.4599,1.4769999999999999
5.28,1.4098,0.1192,0.4633,1.489
5.281,1.4202,0.1046,0.4662,1.4980000000000002
5.281,1.4316,0.0905,0.4682,1.5090000000000001
5.282,1.4386,0.0764,0.4721,1.516
5.282,1.446,0.0628,0.4765,1.524
5.285,1.4535,0.0486,0.4804,1.5319999999999998
5.288,1.456,0.034,0.4853,1.535
5.29,1.462,0.0193,0.4897,1.5419999999999998
5.293,1.4656,0.0027,0.4907,1.546
5.295,1.4712,-0.0115,0.4941,1.5519999999999998
5.297,1.4762,-0.0281,0.496,1.558
5.303,1.4813,-0.0456,0.4969,1.5630000000000002
5.304,1.4854,-0.0701,0.4979,1.568
5.304,1.4876,-0.0902,0.4984,1.571
5.307,1.4903,-0.1122,0.4974,1.575
5.315,1.4915,-0.1351,0.4999,1.579
5.315,1.4908,-0.1538,0.4984,1.579
5.315,1.4891,-0.1734,0.4994,1.58
5.317,1.4864,-0.1925,0.4998,1.58
5.319,1.4821,-0.2083,0.4998,1.578
5.321,1.4759,-0.2206,0.4998,1.574
5.324,1.4693,-0.2344,0.5013,1.57
5.327,1.4591,-0.2458,0.5027,1.5630000000000002
5.33,1.4485,-0.2537,0.5042,1.555
5.333,1.4372,-0.2583,0.5046,1.545
5.334,1.4265,-0.2618,0.5041,1.535
5.336,1.4148,-0.2625,0.5051,1.525
5.339,1.4016,-0.265,0.5022,1.5119999999999998
5.341,1.3894,-0.2642,0.5012,1.5
5.344,1.3776,-0.2624,0.5022,1.49
5.346,1.3649,-0.2581,0.5017,1.4769999999999999
5.349,1.3575,-0.2548,0.4997,1.469
5.354,1.3472,-0.2486,0.4983,1.4580000000000002
5.354,1.3393,-0.2418,0.4968,1.449
5.356,1.3324,-0.234,0.4928,1.44
5.359,1.3226,-0.2273,0.4904,1.429
5.365,1.3118,-0.2181,0.485,1.415
5.366,1.3045,-0.2098,0.4767,1.405
5.366,1.2946,-0.1992,0.4709,1.392
5.368,1.2858,-0.1909,0.4645,1.38
5.372,1.2749,-0.1821,0.4557,1.3659999999999999
5.373,1.2656,-0.1754,0.4465,1.3530000000000002
5.376,1.2564,-0.1696,0.4376,1.341
5.378,1.2492,-0.1652,0.4234,1.329
5.38,1.2433,-0.159,0.4122,1.319
5.384,1.2361,-0.1575,0.4004,1.3090000000000002
5.385,1.2288,-0.1571,0.3897,1.2990000000000002
5.388,1.2202,-0.1557,0.3764,1.286
5.391,1.2139,-0.1558,0.3618,1.276
5.393,1.2072,-0.1554,0.3515,1.2670000000000001
5.395,1.202,-0.1564,0.3413,1.2590000000000001
5.398,1.1963,-0.1583,0.3232,1.249
5.4,1.1882,-0.1629,0.305,1.237
5.403,1.1816,-0.1688,0.2874,1.228
5.406,1.1739,-0.1718,0.2742,1.218
5.408,1.1682,-0.1728,0.261,1.209
5.41,1.1634,-0.1728,0.2503,1.202
5.413,1.1596,-0.1763,0.2385,1.197
5.416,1.1558,-0.1803,0.2273,1.192
5.417,1.1511,-0.1832,0.218,1.186
5.42,1.1483,-0.1891,0.2097,1.183
5.422,1.1504,-0.1954,0.2009,1.1840000000000002
5.425,1.1525,-0.2003,0.1945,1.186
5.428,1.156,-0.2032,0.1881,1.189
5.43,1.16,-0.2056,0.1842,1.192
5.432,1.1674,-0.2099,0.1823,1.2
5.434,1.1743,-0.2123,0.1813,1.207
5.437,1.1851,-0.2141,0.1793,1.218
5.44,1.1973,-0.2174,0.1808,1.23
5.442,1.2062,-0.2242,0.1798,1.24
5.444,1.2097,-0.2276,0.1803,1.244
5.447,1.2121,-0.2281,0.1813,1.247
5.45,1.2174,-0.2241,0.1842,1.251
5.452,1.2169,-0.2221,0.1915,1.252
5.454,1.2109,-0.2222,0.2043,1.248
5.457,1.2025,-0.2277,0.2141,1.242
5.459,1.1942,-0.2371,0.2229,1.238
5.462,1.184,-0.25,0.2307,1.232
5.464,1.1773,-0.2663,0.24,1.2309999999999999
5.466,1.1721,-0.282,0.2429,1.23
5.469,1.1639,-0.3012,0.2463,1.227
5.471,1.1562,-0.3214,0.2527,1.226
5.474,1.1467,-0.344,0.2516,1.2229999999999999
5.476,1.1362,-0.3642,0.2531,1.22
5.479,1.1232,-0.3849,0.2541,1.214
5.481,1.1073,-0.4037,0.2575,1.206
5.484,1.0895,-0.422,0.2564,1.196
5.486,1.071,-0.4395,0.2589,1.186
5.489,1.0488,-0.4564,0.2579,1.172
5.492,1.0264,-0.4718,0.2583,1.159
5.493,1.0046,-0.4858,0.2569,1.145
5.496,0.9828,-0.4963,0.2554,1.13
5.498,0.9638,-0.5078,0.2534,1.119
5.501,0.9449,-0.5154,0.2514,1.105
5.503,0.9263,-0.5214,0.2534,1.093
5.506,0.9054,-0.5271,0.2524,1.078
5.51,0.8903,-0.5341,0.2519,1.068
5.511,0.8747,-0.5397,0.2509,1.058
5.513,0.8617,-0.5447,0.2465,1.0490000000000002
5.515,0.849,-0.5513,0.2431,1.041
5.522,0.8374,-0.5529,0.2391,1.032
5.522,0.8272,-0.5554,0.2337,1.023
5.523,0.8175,-0.5585,0.2298,1.016
5.525,0.8116,-0.558,0.2235,1.01
5.528,0.8073,-0.5596,0.2205,1.0070000000000001
5.53,0.8025,-0.5615,0.2161,1.003
5.533,0.7947,-0.5621,0.2098,0.996
5.535,0.7918,-0.5636,0.2039,0.993
5.537,0.7905,-0.567,0.197,0.993
5.541,0.7891,-0.5655,0.1882,0.9890000000000001
5.542,0.7847,-0.5671,0.1799,0.985
5.545,0.7833,-0.5651,0.176,0.982
5.547,0.7819,-0.5637,0.1731,0.9790000000000001
5.55,0.7844,-0.5632,0.1633,0.9790000000000001
5.552,0.7825,-0.5627,0.1574,0.977
5.555,0.7845,-0.5602,0.1501,0.976
5.557,0.7846,-0.5587,0.1423,0.9740000000000001
5.56,0.787,-0.5567,0.1364,0.9740000000000001
5.563,0.789,-0.5561,0.1286,0.9740000000000001
5.565,0.7905,-0.5532,0.1237,0.973
5.567,0.793,-0.5536,0.1193,0.9740000000000001
5.569,0.794,-0.5527,0.1129,0.9740000000000001
5.572,0.7985,-0.5541,0.11,0.978
5.574,0.8014,-0.554,0.1076,0.98
5.577,0.8073,-0.5544,0.1036,0.985
5.579,0.8128,-0.5573,0.0983,0.99
5.582,0.8178,-0.5592,0.0949,0.995
5.585,0.8233,-0.5635,0.0929,1.002
5.587,0.8262,-0.5645,0.0914,1.005
5.589,0.8306,-0.5649,0.0905,1.0090000000000001
5.591,0.8326,-0.5664,0.0919,1.011
5.594,0.8336,-0.5674,0.091,1.012
5.596,0.837,-0.5663,0.089,1.015
5.599,0.8399,-0.5658,0.0875,1.016
5.601,0.8424,-0.5648,0.088,1.018
5.604,0.8468,-0.5628,0.0836,1.02
5.607,0.8512,-0.5613,0.0836,1.023
5.609,0.8546,-0.5593,0.085,1.025
5.612,0.856,-0.5593,0.0861,1.026
5.614,0.8614,-0.5587,0.0875,1.03
5.616,0.8623,-0.5568,0.0944,1.031
5.619,0.8632,-0.5582,0.1003,1.033
5.621,0.8636,-0.5607,0.1071,1.035
5.623,0.8631,-0.5612,0.1149,1.036
5.626,0.8606,-0.5641,0.1237,1.036
5.628,0.8576,-0.5662,0.1325,1.036
5.631,0.8516,-0.5682,0.1423,1.034
5.633,0.8452,-0.5698,0.1525,1.031
5.636,0.8388,-0.5713,0.1589,1.0270000000000001
5.638,0.83,-0.5724,0.1643,1.022
5.761,0.8206,-0.573,0.1696,1.015
5.761,0.8112,-0.5707,0.1765,1.0070000000000001
5.761,0.8009,-0.5698,0.1818,1.0
5.762,0.7916,-0.569,0.1867,0.993
5.762,0.7822,-0.5691,0.1887,0.986
5.763,0.772,-0.5687,0.1916,0.978
5.763,0.7636,-0.5703,0.1955,0.973
5.763,0.7602,-0.5743,0.198,0.973
5.764,0.7588,-0.5792,0.1984,0.975
5.764,0.7628,-0.587,0.1965,0.982
5.764,0.7689,-0.603,0.1931,0.996
5.764,0.7809,-0.6215,0.1877,1.016
5.765,0.7974,-0.6467,0.1793,1.042
5.765,0.818,-0.6744,0.1686,1.073
5.765,0.83,-0.6964,0.1637,1.0959999999999999
5.765,0.8476,-0.7269,0.1496,1.127
5.766,0.8618,-0.7596,0.1359,1.157
5.766,0.8734,-0.7909,0.1261,1.185
5.766,0.8792,-0.8202,0.1173,1.208
5.766,0.8811,-0.8509,0.1094,1.23
5.767,0.8786,-0.8789,0.1006,1.247
5.767,0.8736,-0.9045,0.0903,1.261
5.767,0.8613,-0.9276,0.0795,1.268
5.767,0.843,-0.9464,0.0682,1.2690000000000001
5.767,0.8199,-0.9608,0.0565,1.264
5.768,0.7912,-0.9675,0.0447,1.251
5.768,0.7566,-0.9669,0.0339,1.228
5.768,0.721,-0.9599,0.0208,1.2009999999999998
5.768,0.6837,-0.9476,0.0105,1.169
5.769,0.6445,-0.93,0.0026,1.131
5.769,0.6086,-0.9107,-0.0042,1.095
5.77,0.5722,-0.8906,-0.0091,1.0590000000000002
5.77,0.5403,-0.8713,-0.0111,1.025
5.77,0.5107,-0.8516,-0.0111,0.993
5.77,0.488,-0.8328,-0.0082,0.965
5.771,0.4657,-0.8139,-0.0082,0.938
5.771,0.4464,-0.7931,-0.0043,0.91
5.771,0.428,-0.7738,0.0021,0.884
5.771,0.4145,-0.7553,0.0079,0.862
5.771,0.4079,-0.7401,0.0163,0.845
5.772,0.4008,-0.7236,0.0246,0.828
5.772,0.3966,-0.7036,0.0363,0.8079999999999999
5.772,0.3976,-0.6821,0.0515,0.7909999999999999
5.773,0.4021,-0.6614,0.0642,0.777
5.773,0.4131,-0.6437,0.0745,0.768
5.773,0.425,-0.6284,0.0858,0.763
5.773,0.4448,-0.6149,0.0951,0.765
5.774,0.4637,-0.6049,0.1063,0.77
5.774,0.4885,-0.5988,0.1142,0.7809999999999999
5.774,0.5152,-0.5936,0.125,0.7959999999999999
5.774,0.5464,-0.5933,0.1328,0.8170000000000001
5.774,0.5825,-0.5943,0.1411,0.8440000000000001
5.775,0.6226,-0.5983,0.148,0.8759999999999999
5.775,0.6661,-0.6071,0.1534,0.914
5.775,0.7093,-0.6169,0.1593,0.953
5.785,0.7573,-0.6271,0.1632,0.997
5.786,0.8057,-0.6393,0.1662,1.042
5.786,0.8543,-0.648,0.1726,1.0859999999999999
5.786,0.9032,-0.6559,0.1794,1.131
5.787,0.953,-0.6597,0.1863,1.1740000000000002
5.788,1.0014,-0.6636,0.1927,1.217
5.79,1.0518,-0.6679,0.1995,1.262
5.793,1.0992,-0.6688,0.2041,1.3030000000000002
5.795,1.1461,-0.6707,0.2065,1.344
5.8,1.1925,-0.6678,0.2124,1.383
5.801,1.2349,-0.6638,0.2129,1.4180000000000001
5.803,1.2745,-0.6575,0.2135,1.45
5.805,1.3075,-0.639,0.2154,1.4709999999999999
5.81,1.3366,-0.6245,0.2204,1.492
5.811,1.3657,-0.6089,0.2248,1.5119999999999998
5.812,1.3904,-0.5925,0.2365,1.53
5.815,1.4145,-0.5771,0.2517,1.548
5.817,1.4351,-0.5558,0.2649,1.5619999999999998
5.825,1.451,-0.5394,0.2747,1.5719999999999998
5.825,1.4687,-0.5187,0.2918,1.585
5.825,1.4834,-0.4985,0.3084,1.595
5.827,1.4933,-0.4753,0.3217,1.6
5.83,1.5042,-0.4562,0.3359,1.607
5.832,1.5122,-0.4365,0.3462,1.6119999999999999
5.834,1.5177,-0.4158,0.3584,1.614
5.837,1.5223,-0.3982,0.3702,1.6159999999999999
5.839,1.524,-0.3791,0.3805,1.6159999999999999
5.842,1.5255,-0.3595,0.3941,1.6159999999999999
5.844,1.5242,-0.3395,0.4083,1.614
5.847,1.5213,-0.3145,0.4216,1.61
5.849,1.5131,-0.2896,0.4372,1.601
5.853,1.4994,-0.2624,0.4455,1.5859999999999999
5.854,1.482,-0.2376,0.4451,1.5659999999999998
5.857,1.4638,-0.2143,0.4377,1.5430000000000001
5.859,1.446,-0.1909,0.4269,1.52
5.862,1.4224,-0.1726,0.4133,1.4909999999999999
5.864,1.4005,-0.1571,0.3946,1.463
5.866,1.3784,-0.1451,0.3775,1.4369999999999998
5.87,1.3535,-0.1341,0.3595,1.4069999999999998
5.872,1.3345,-0.124,0.3404,1.383
5.874,1.3128,-0.1163,0.315,1.355
5.876,1.2929,-0.1116,0.2914,1.33
5.879,1.273,-0.1084,0.2685,1.305
5.881,1.2526,-0.1062,0.2474,1.281
5.884,1.2308,-0.103,0.2249,1.255
5.886,1.2105,-0.1007,0.2044,1.232
5.888,1.1862,-0.0971,0.1848,1.204
5.893,1.1619,-0.0939,0.1642,1.177
5.896,1.1384,-0.0922,0.152,1.1520000000000001
5.897,1.1127,-0.0905,0.1378,1.125
5.898,1.0917,-0.0844,0.1182,1.101
5.901,1.0708,-0.0791,0.1021,1.079
5.907,1.0485,-0.0764,0.0815,1.054
5.907,1.0246,-0.0742,0.0678,1.03
5.908,1.0057,-0.0734,0.0526,1.01
5.91,0.9883,-0.0731,0.0375,0.992
5.913,0.9709,-0.0776,0.0189,0.9740000000000001
5.916,0.9554,-0.0803,0.0086,0.9590000000000001
5.918,0.9424,-0.0859,-0.0026,0.946
5.92,0.9303,-0.0924,-0.0164,0.935
5.923,0.9187,-0.1003,-0.0227,0.924
5.928,0.91,-0.1072,-0.0242,0.917
5.928,0.9042,-0.1132,-0.0251,0.912
5.93,0.898,-0.1226,-0.0251,0.907
5.933,0.8931,-0.13,-0.0183,0.903
5.935,0.8921,-0.1369,-0.0056,0.903
5.938,0.8949,-0.1422,0.0066,0.9059999999999999
5.94,0.8979,-0.1476,0.0183,0.91
5.942,0.9036,-0.152,0.0315,0.917
5.945,0.9084,-0.1534,0.0447,0.922
5.949,0.9142,-0.1563,0.0599,0.929
5.95,0.917,-0.1558,0.0745,0.9329999999999999
5.952,0.9187,-0.1553,0.0892,0.9359999999999999
5.955,0.9191,-0.1534,0.1029,0.937
5.957,0.919,-0.1544,0.1108,0.938
5.961,0.916,-0.1539,0.1235,0.937
5.962,0.9139,-0.1535,0.1342,0.9359999999999999
5.965,0.9148,-0.1545,0.145,0.9390000000000001
5.967,0.9147,-0.156,0.1562,0.941
5.969,0.9166,-0.1579,0.1665,0.945
5.972,0.916,-0.1594,0.1782,0.9470000000000001
5.974,0.9159,-0.1653,0.19,0.95
5.977,0.9173,-0.1692,0.2013,0.9540000000000001
5.979,0.9178,-0.1756,0.212,0.958
5.983,0.9178,-0.1815,0.2242,0.9620000000000001
5.984,0.9197,-0.1884,0.233,0.9670000000000001
5.987,0.9202,-0.1947,0.2423,0.971
5.989,0.9211,-0.2021,0.253,0.976
5.992,0.9211,-0.2051,0.2633,0.98
5.994,0.923,-0.2095,0.2721,0.985
5.996,0.922,-0.2114,0.2819,0.987
5.999,0.9218,-0.2144,0.2936,0.991
6.001,0.9203,-0.2174,0.3034,0.993
6.005,0.9198,-0.2184,0.3112,0.995
6.006,0.9187,-0.2194,0.321,0.998
6.009,0.9221,-0.2213,0.3279,1.003
6.012,0.923,-0.2218,0.3362,1.0070000000000001
6.014,0.9225,-0.2248,0.3454,1.01
6.016,0.9244,-0.2287,0.3508,1.015
6.019,0.9254,-0.2312,0.3567,1.018
6.021,0.9307,-0.2335,0.3611,1.025
6.023,0.9352,-0.2374,0.365,1.032
6.027,0.9401,-0.2418,0.3665,1.038
6.031,0.9451,-0.2476,0.366,1.043
6.031,0.9524,-0.25,0.367,1.051
6.033,0.9598,-0.2537,0.3699,1.0590000000000002
6.036,0.9681,-0.2561,0.3733,1.069
6.043,0.9764,-0.2575,0.3748,1.077
6.044,0.9901,-0.2588,0.3763,1.09
6.044,1.0018,-0.2572,0.3782,1.101
6.045,1.0154,-0.2575,0.3807,1.115
6.048,1.031,-0.2549,0.3861,1.13
6.05,1.0436,-0.2489,0.3949,1.143
6.053,1.0561,-0.2449,0.4042,1.157
6.055,1.0663,-0.2423,0.4135,1.169
6.058,1.077,-0.2398,0.4233,1.182
6.061,1.0865,-0.2363,0.435,1.194
6.063,1.0958,-0.2337,0.4424,1.205
6.065,1.1049,-0.2307,0.4517,1.216
6.067,1.1141,-0.2272,0.4629,1.228
6.07,1.1237,-0.2241,0.4727,1.24
6.072,1.1353,-0.2221,0.4834,1.254
6.075,1.1469,-0.22,0.4918,1.2670000000000001
6.077,1.159,-0.216,0.5001,1.281
6.08,1.1726,-0.2124,0.5109,1.297
6.083,1.1867,-0.2088,0.5153,1.311
6.085,1.2003,-0.2062,0.5212,1.325
6.087,1.2125,-0.2056,0.5251,1.337
6.09,1.2242,-0.2045,0.528,1.349
6.092,1.2388,-0.2019,0.5309,1.3630000000000002
6.095,1.2519,-0.1997,0.533,1.375
6.097,1.267,-0.1956,0.5359,1.389
6.099,1.2826,-0.192,0.5388,1.4040000000000001
6.102,1.2967,-0.187,0.5432,1.4180000000000001
6.106,1.3112,-0.1795,0.5467,1.432
6.107,1.3253,-0.1729,0.5507,1.445
6.109,1.3388,-0.1644,0.5555,1.459
6.112,1.3548,-0.1555,0.5594,1.474
6.114,1.3703,-0.144,0.5678,1.49
6.117,1.3896,-0.1301,0.5727,1.5090000000000001
6.119,1.4061,-0.1182,0.5751,1.524
6.122,1.4216,-0.1047,0.5771,1.538
6.124,1.4375,-0.0919,0.5801,1.5530000000000002
6.127,1.4525,-0.0769,0.5801,1.5659999999999998
6.129,1.4621,-0.0636,0.5815,1.575
6.267,1.4766,-0.0483,0.5836,1.588
6.268,1.4886,-0.0315,0.5845,1.6
6.268,1.5001,-0.0142,0.585,1.61
6.269,1.5097,0.004,0.5875,1.62
6.269,1.5222,0.0228,0.5885,1.632
6.269,1.5322,0.043,0.5905,1.643
6.27,1.5412,0.0622,0.5909,1.652
6.27,1.5503,0.0814,0.5895,1.661
6.27,1.558,0.1011,0.5856,1.6669999999999998
6.27,1.5661,0.1179,0.5807,1.675
6.271,1.5753,0.1326,0.5749,1.682
6.271,1.583,0.1464,0.5656,1.6869999999999998
6.271,1.5918,0.1579,0.5568,1.694
6.271,1.6021,0.1634,0.5456,1.7
6.272,1.6105,0.1679,0.5353,1.705
6.272,1.6199,0.1695,0.524,1.7109999999999999
6.272,1.6308,0.1638,0.5148,1.7180000000000002
6.272,1.6446,0.1552,0.5055,1.7280000000000002
6.273,1.66,0.147,0.5026,1.7409999999999999
6.273,1.6752,0.1354,0.5016,1.754
6.273,1.6905,0.1204,0.5026,1.768
6.273,1.7053,0.1063,0.5055,1.7819999999999998
6.274,1.7177,0.0913,0.5084,1.794
6.274,1.7295,0.0758,0.5143,1.806
6.274,1.7405,0.0642,0.5182,1.817
6.275,1.7507,0.0559,0.5299,1.83
6.275,1.7575,0.053,0.5417,1.84
6.275,1.7623,0.0526,0.553,1.848
6.276,1.7621,0.056,0.5662,1.8519999999999999
6.276,1.7604,0.0618,0.5779,1.854
6.276,1.7563,0.0725,0.5862,1.8530000000000002
6.276,1.7498,0.0837,0.5886,1.848
6.277,1.7399,0.0953,0.5886,1.839
6.277,1.7245,0.1104,0.5867,1.825
6.277,1.7049,0.1263,0.5818,1.806
6.277,1.6808,0.1441,0.5779,1.7830000000000001
6.277,1.6513,0.1586,0.574,1.755
6.278,1.6203,0.1743,0.571,1.7269999999999999
6.278,1.5904,0.1877,0.569,1.7
6.278,1.5639,0.1977,0.5656,1.675
6.278,1.5385,0.2028,0.5514,1.6469999999999998
6.279,1.5152,0.2045,0.5333,1.619
6.279,1.4958,0.2058,0.5162,1.5959999999999999
6.279,1.4715,0.2027,0.501,1.568
6.279,1.4478,0.1975,0.4878,1.54
6.28,1.4236,0.1864,0.4731,1.5119999999999998
6.28,1.398,0.1745,0.4574,1.4809999999999999
6.28,1.3758,0.161,0.4413,1.454
6.28,1.3551,0.1431,0.4266,1.4280000000000002
6.28,1.3358,0.1267,0.4123,1.4040000000000001
6.281,1.3161,0.1069,0.4031,1.381
6.281,1.2999,0.0857,0.3942,1.361
6.281,1.284,0.0649,0.3874,1.3430000000000002
6.281,1.2687,0.0388,0.3829,1.3259999999999998
6.282,1.2518,0.0156,0.38,1.308
6.282,1.2429,-0.011,0.381,1.3
6.282,1.2319,-0.039,0.3833,1.291
6.282,1.2225,-0.069,0.3872,1.284
6.283,1.2184,-0.0985,0.3916,1.284
6.283,1.2153,-0.1279,0.396,1.285
6.283,1.2126,-0.1563,0.4009,1.287
6.283,1.21,-0.1838,0.4043,1.2890000000000001
6.284,1.2088,-0.2113,0.4077,1.2930000000000001
6.286,1.2075,-0.2334,0.4101,1.296
6.289,1.2072,-0.2549,0.417,1.3019999999999998
6.292,1.2074,-0.2755,0.4228,1.3090000000000002
6.293,1.2105,-0.2951,0.4282,1.317
6.3,1.2131,-0.3107,0.4322,1.325
6.301,1.2162,-0.3259,0.4361,1.3319999999999999
6.301,1.2213,-0.341,0.4375,1.341
6.303,1.2253,-0.3532,0.4395,1.349
6.306,1.2322,-0.3654,0.4415,1.359
6.318,1.2363,-0.3756,0.4429,1.3659999999999999
6.319,1.2402,-0.3849,0.4444,1.3730000000000002
6.32,1.2457,-0.3922,0.4439,1.379
6.32,1.2497,-0.399,0.4444,1.385
6.32,1.2537,-0.4043,0.441,1.389
6.32,1.2552,-0.4077,0.4419,1.392
6.323,1.2577,-0.4126,0.4419,1.395
6.325,1.2606,-0.4136,0.4444,1.399
6.328,1.2616,-0.415,0.4439,1.4
6.33,1.263,-0.413,0.4468,1.402
6.333,1.264,-0.4115,0.4493,1.403
6.335,1.2625,-0.4096,0.4517,1.402
6.337,1.2584,-0.4048,0.4551,1.3980000000000001
6.342,1.2559,-0.3999,0.4556,1.395
6.343,1.251,-0.3926,0.4576,1.389
6.345,1.2455,-0.3854,0.4561,1.381
6.347,1.2391,-0.3775,0.4527,1.3719999999999999
6.35,1.2346,-0.3683,0.4478,1.364
6.352,1.2293,-0.3595,0.44,1.354
6.355,1.2253,-0.3488,0.4331,1.3459999999999999
6.357,1.2199,-0.3405,0.4258,1.3359999999999999
6.36,1.2164,-0.3352,0.4189,1.329
6.366,1.2126,-0.3293,0.4096,1.3219999999999998
6.367,1.2082,-0.3235,0.3984,1.3130000000000002
6.367,1.201,-0.3216,0.3876,1.3019999999999998
6.37,1.1967,-0.3187,0.3754,1.294
6.372,1.1899,-0.3158,0.3651,1.284
6.378,1.187,-0.3109,0.3519,1.2770000000000001
6.379,1.1802,-0.31,0.3421,1.2670000000000001
6.379,1.173,-0.3076,0.3329,1.2570000000000001
6.382,1.1658,-0.3072,0.3226,1.248
6.384,1.158,-0.3048,0.3128,1.238
6.387,1.1502,-0.3014,0.3015,1.227
6.389,1.1429,-0.2981,0.2907,1.216
6.391,1.1361,-0.2962,0.282,1.207
6.394,1.1284,-0.2938,0.2717,1.197
6.398,1.1221,-0.2895,0.2629,1.188
6.399,1.1143,-0.2881,0.2545,1.179
6.401,1.1061,-0.2852,0.2433,1.168
6.404,1.1027,-0.2823,0.236,1.162
6.406,1.0983,-0.2784,0.2296,1.156
6.409,1.0934,-0.2725,0.2228,1.149
6.412,1.0871,-0.2702,0.2165,1.141
6.414,1.0847,-0.2677,0.2106,1.137
6.416,1.0794,-0.2673,0.2028,1.13
6.42,1.0799,-0.2673,0.1973,1.13
6.421,1.0785,-0.2707,0.1944,1.129
6.423,1.0752,-0.2776,0.1948,1.127
6.426,1.0738,-0.286,0.1963,1.128
6.428,1.0709,-0.2934,0.1983,1.128
6.431,1.0691,-0.3027,0.2003,1.129
6.433,1.0677,-0.313,0.2042,1.131
6.436,1.0658,-0.3233,0.2086,1.133
6.438,1.064,-0.3351,0.21,1.135
6.442,1.0592,-0.3474,0.2105,1.1340000000000001
6.443,1.0539,-0.3583,0.2135,1.133
6.445,1.0492,-0.3691,0.214,1.133
6.448,1.0419,-0.3794,0.2169,1.13
6.451,1.0327,-0.3899,0.2173,1.125
6.453,1.0245,-0.3993,0.2183,1.121
6.455,1.0138,-0.4062,0.2193,1.114
6.458,1.0066,-0.4137,0.2197,1.11
6.46,0.9959,-0.4201,0.2207,1.103
6.463,0.9866,-0.4262,0.2241,1.0979999999999999
6.465,0.974,-0.4303,0.2251,1.088
6.468,0.9662,-0.4377,0.2285,1.085
6.47,0.9545,-0.4442,0.2304,1.078
6.473,0.9448,-0.4482,0.2309,1.071
6.475,0.9356,-0.4537,0.2295,1.065
6.477,0.9282,-0.4558,0.2299,1.0590000000000002
6.48,0.9204,-0.4598,0.2309,1.054
6.482,0.9141,-0.4643,0.2329,1.051
6.485,0.9107,-0.4672,0.2314,1.0490000000000002
6.487,0.9054,-0.4702,0.2309,1.046
6.49,0.8996,-0.4718,0.2299,1.041
6.492,0.8971,-0.4728,0.2304,1.04
6.494,0.8943,-0.4743,0.2279,1.038
6.497,0.8918,-0.4758,0.224,1.035
6.5,0.8856,-0.4773,0.2182,1.0290000000000001
6.502,0.8792,-0.4769,0.2143,1.023
6.504,0.8749,-0.4764,0.2079,1.018
6.507,0.8657,-0.4765,0.202,1.0090000000000001
6.511,0.8603,-0.4775,0.1981,1.004
6.512,0.8531,-0.4791,0.1922,0.997
6.514,0.8492,-0.4781,0.1858,0.992
6.518,0.8438,-0.4772,0.1829,0.987
6.523,0.8444,-0.4772,0.1765,0.986
6.524,0.8421,-0.4782,0.1712,0.983
6.524,0.8421,-0.4782,0.1677,0.983
6.526,0.8426,-0.4782,0.1638,0.983
6.529,0.8455,-0.4791,0.1624,0.985
6.532,0.8485,-0.4811,0.158,0.988
6.534,0.852,-0.483,0.1546,0.991
6.536,0.8535,-0.4844,0.1541,0.993
6.539,0.8594,-0.4858,0.1526,0.9990000000000001
6.542,0.8623,-0.4882,0.1536,1.003
6.544,0.8648,-0.4872,0.1536,1.004
6.547,0.8677,-0.4872,0.1541,1.0070000000000001
6.549,0.8683,-0.4896,0.155,1.0090000000000001
6.551,0.8716,-0.4896,0.1565,1.012
6.554,0.875,-0.49,0.159,1.015
6.556,0.877,-0.4925,0.1614,1.0190000000000001
6.558,0.8784,-0.4935,0.1663,1.021
6.561,0.8799,-0.4939,0.1697,1.023
6.563,0.8789,-0.4979,0.1731,1.025
6.566,0.8794,-0.4993,0.177,1.0270000000000001
6.568,0.8819,-0.5042,0.1785,1.031
6.57,0.8818,-0.5062,0.1829,1.033
6.574,0.8824,-0.5106,0.1853,1.036
6.576,0.8824,-0.512,0.1863,1.037
6.578,0.8819,-0.5179,0.1883,1.04
6.58,0.882,-0.5243,0.1878,1.043
6.583,0.8797,-0.5322,0.1863,1.045
6.585,0.8783,-0.5356,0.1829,1.045
6.588,0.8764,-0.544,0.18,1.047
6.59,0.877,-0.5499,0.177,1.05
6.593,0.8747,-0.5568,0.1736,1.051
6.595,0.8748,-0.5655,0.1721,1.056
6.598,0.8739,-0.5729,0.1687,1.058
6.6,0.8741,-0.5832,0.1653,1.064
6.603,0.8733,-0.5925,0.1648,1.068
6.605,0.8738,-0.6017,0.1643,1.074
6.607,0.8715,-0.6116,0.1638,1.077
6.61,0.8726,-0.6194,0.1657,1.083
6.612,0.8722,-0.6258,0.1652,1.0859999999999999
6.615,0.8717,-0.6321,0.1696,1.09
6.617,0.8708,-0.6381,0.1731,1.093
6.62,0.8717,-0.6415,0.1784,1.097
6.77,0.8717,-0.6439,0.1848,1.099
6.77,0.8717,-0.6459,0.1906,1.102
6.77,0.8692,-0.6464,0.198,1.101
6.77,0.8632,-0.649,0.2049,1.099
6.771,0.8607,-0.6485,0.2083,1.0979999999999999
6.771,0.8582,-0.6481,0.2127,1.0959999999999999
6.771,0.8543,-0.6461,0.2161,1.093
6.771,0.8493,-0.6413,0.2201,1.087
6.772,0.8463,-0.637,0.222,1.082
6.772,0.8472,-0.632,0.2254,1.081
6.772,0.8501,-0.6257,0.2269,1.08
6.772,0.8573,-0.6202,0.2264,1.082
6.772,0.8661,-0.6186,0.223,1.087
6.773,0.8809,-0.6199,0.2176,1.099
6.773,0.8986,-0.6256,0.2118,1.115
6.773,0.9172,-0.6312,0.2113,1.133
6.773,0.941,-0.6456,0.2049,1.159
6.773,0.9657,-0.6625,0.198,1.188
6.774,0.9919,-0.6828,0.1946,1.22
6.774,1.0156,-0.7065,0.1902,1.252
6.774,1.0315,-0.7274,0.1883,1.276
6.774,1.0444,-0.7439,0.1878,1.296
6.775,1.0232,-0.7314,0.1902,1.272
6.775,1.0137,-0.7432,0.1751,1.2690000000000001
6.775,1.0098,-0.7786,0.1706,1.286
6.775,1.0023,-0.8075,0.1691,1.298
6.775,0.9885,-0.8356,0.1687,1.305
6.776,0.9775,-0.8621,0.1686,1.314
6.776,0.9665,-0.8854,0.1759,1.3230000000000002
6.776,0.95,-0.9023,0.1779,1.3219999999999998
6.776,0.9345,-0.9161,0.1852,1.3219999999999998
6.776,0.9193,-0.9251,0.1896,1.318
6.777,0.9062,-0.9282,0.1895,1.311
6.777,0.8964,-0.9273,0.19,1.304
6.777,0.8875,-0.9181,0.1842,1.29
6.777,0.8816,-0.906,0.1817,1.2770000000000001
6.777,0.8685,-0.8786,0.1911,1.25
6.778,0.8463,-0.8329,0.2063,1.205
6.778,0.8133,-0.7799,0.2204,1.148
6.778,0.7753,-0.7265,0.238,1.089
6.778,0.7326,-0.6746,0.2517,1.0270000000000001
6.778,0.6923,-0.628,0.2561,0.9690000000000001
6.779,0.6482,-0.585,0.2654,0.9129999999999999
6.779,0.6061,-0.5448,0.2766,0.861
6.78,0.563,-0.51,0.2825,0.8109999999999999
6.781,0.527,-0.4791,0.2923,0.77
6.781,0.4933,-0.4535,0.3035,0.736
6.781,0.4675,-0.4314,0.3153,0.71
6.781,0.4452,-0.4183,0.326,0.6920000000000001
6.781,0.4319,-0.4117,0.3324,0.6829999999999999
6.782,0.4244,-0.4064,0.3421,0.68
6.782,0.4268,-0.4064,0.346,0.6829999999999999
6.782,0.4346,-0.4102,0.348,0.6920000000000001
6.782,0.4524,-0.4188,0.3441,0.706
6.783,0.4756,-0.4299,0.3402,0.726
6.783,0.5022,-0.4442,0.3314,0.748
6.783,0.5308,-0.4605,0.3216,0.773
6.783,0.5663,-0.4767,0.3089,0.802
6.783,0.6044,-0.4929,0.2962,0.8340000000000001
6.783,0.6458,-0.5125,0.2816,0.871
6.784,0.6852,-0.5311,0.2679,0.907
6.784,0.7232,-0.5488,0.2537,0.943
6.784,0.7592,-0.564,0.2381,0.975
6.784,0.7973,-0.5826,0.2196,1.012
6.784,0.8363,-0.5988,0.199,1.048
6.785,0.8714,-0.6151,0.1789,1.082
6.785,0.907,-0.6283,0.1584,1.115
6.787,0.9372,-0.6412,0.1394,1.1440000000000001
6.789,0.9697,-0.6525,0.1242,1.175
6.792,0.9988,-0.6635,0.1066,1.204
6.794,1.027,-0.6715,0.0886,1.23
6.796,1.0516,-0.6775,0.0729,1.253
6.799,1.0719,-0.6807,0.0568,1.271
6.801,1.0871,-0.679,0.0416,1.2819999999999998
6.804,1.0965,-0.6759,0.027,1.288
6.806,1.101,-0.67,0.0138,1.2890000000000001
6.809,1.1005,-0.6592,-0.0009,1.2830000000000001
6.815,1.0966,-0.6455,-0.0145,1.273
6.815,1.0882,-0.6269,-0.0277,1.256
6.817,1.0802,-0.6074,-0.0381,1.24
6.819,1.0674,-0.586,-0.0464,1.219
6.821,1.0574,-0.5591,-0.0566,1.197
6.829,1.0444,-0.5328,-0.0659,1.1740000000000002
6.83,1.0344,-0.505,-0.0747,1.1540000000000001
6.83,1.0215,-0.4792,-0.0806,1.131
6.831,1.011,-0.4548,-0.0855,1.112
6.833,1.0024,-0.4289,-0.0918,1.094
6.836,0.9972,-0.404,-0.0942,1.08
6.838,0.9941,-0.3839,-0.0961,1.07
6.841,0.99,-0.3639,-0.0996,1.0590000000000002
6.843,0.9888,-0.3478,-0.0986,1.053
6.845,0.9847,-0.3316,-0.101,1.044
6.848,0.984,-0.3174,-0.0976,1.0390000000000001
6.85,0.9839,-0.3061,-0.0937,1.035
6.853,0.9838,-0.2968,-0.0932,1.032
6.856,0.9821,-0.2876,-0.0839,1.0270000000000001
6.858,0.98,-0.2812,-0.0786,1.023
6.86,0.9785,-0.2768,-0.0746,1.02
6.863,0.975,-0.273,-0.0722,1.015
6.865,0.9705,-0.2696,-0.0682,1.01
6.868,0.9626,-0.2658,-0.0599,1.0
6.87,0.9561,-0.2605,-0.0551,0.992
6.872,0.9472,-0.2572,-0.0516,0.983
6.875,0.9378,-0.2529,-0.0458,0.972
6.877,0.9304,-0.2495,-0.0443,0.9640000000000001
6.88,0.9215,-0.2462,-0.0399,0.955
6.882,0.9117,-0.2424,-0.0414,0.9440000000000001
6.885,0.9024,-0.2386,-0.0424,0.934
6.887,0.8897,-0.2373,-0.0444,0.922
6.89,0.8789,-0.2345,-0.04,0.91
6.893,0.8676,-0.2341,-0.0405,0.9
6.895,0.8563,-0.2313,-0.0366,0.888
6.897,0.8431,-0.2315,-0.0322,0.875
6.899,0.8312,-0.2296,-0.0209,0.863
6.904,0.8204,-0.2288,-0.0145,0.852
6.905,0.8125,-0.2274,-0.0092,0.8440000000000001
6.907,0.805,-0.2266,-0.0004,0.836
6.91,0.7946,-0.2252,0.0109,0.826
6.916,0.7887,-0.2258,0.0241,0.821
6.917,0.7803,-0.2274,0.0339,0.813
6.917,0.77,-0.2315,0.0451,0.805
6.919,0.7601,-0.236,0.0544,0.7979999999999999
6.921,0.7518,-0.2429,0.0656,0.7929999999999999
6.924,0.741,-0.2505,0.0754,0.7859999999999999
6.926,0.7327,-0.2579,0.0852,0.7809999999999999
6.929,0.7255,-0.2693,0.0905,0.779
6.932,0.7192,-0.2787,0.0983,0.778
6.934,0.7138,-0.287,0.1066,0.777
6.937,0.7065,-0.294,0.114,0.774
6.939,0.7031,-0.3004,0.1203,0.774
6.941,0.702,-0.3073,0.1262,0.777
6.943,0.6997,-0.3128,0.1296,0.777
6.946,0.7036,-0.3161,0.134,0.7829999999999999
6.949,0.7056,-0.3196,0.1389,0.787
6.951,0.7109,-0.3195,0.1428,0.792
6.953,0.7153,-0.321,0.1482,0.7979999999999999
6.957,0.7206,-0.3219,0.1536,0.804
6.958,0.7283,-0.3228,0.1594,0.812
6.961,0.7332,-0.3247,0.1663,0.8190000000000001
6.963,0.7395,-0.328,0.1736,0.8270000000000001
6.966,0.7459,-0.3304,0.1819,0.836
6.969,0.7492,-0.3353,0.1893,0.8420000000000001
6.971,0.7565,-0.3382,0.1956,0.851
6.973,0.7609,-0.3435,0.2045,0.86
6.976,0.7648,-0.3449,0.2118,0.865
6.978,0.7721,-0.3478,0.2201,0.875
6.98,0.7774,-0.3492,0.2284,0.882
6.983,0.7842,-0.3506,0.2343,0.89
6.985,0.7905,-0.353,0.2426,0.899
6.988,0.7963,-0.3549,0.248,0.9059999999999999
6.991,0.8012,-0.3588,0.2544,0.914
6.993,0.8089,-0.3602,0.2636,0.924
6.995,0.8176,-0.3537,0.2715,0.9309999999999999
6.997,0.8297,-0.3478,0.2764,0.941
7.0,0.839,-0.3457,0.2754,0.948
7.003,0.8435,-0.3515,0.274,0.9540000000000001
7.005,0.8436,-0.3583,0.274,0.9570000000000001
7.007,0.8442,-0.3672,0.2719,0.96
7.01,0.8433,-0.374,0.2744,0.9620000000000001
7.016,0.8428,-0.3824,0.2793,0.9670000000000001
7.017,0.8424,-0.3907,0.2871,0.972
7.017,0.8457,-0.396,0.2964,0.98
7.021,0.8505,-0.3955,0.3086,0.987
7.022,0.8587,-0.3944,0.3219,0.998
7.031,0.8664,-0.3924,0.3311,1.0070000000000001
7.031,0.8761,-0.3913,0.3415,1.018
7.032,0.8863,-0.3903,0.3439,1.028
7.032,0.8955,-0.3887,0.3527,1.038
7.035,0.9081,-0.3861,0.36,1.05
7.037,0.9236,-0.3845,0.3649,1.065
7.039,0.9383,-0.378,0.3679,1.0759999999999998
7.042,0.9538,-0.3744,0.3742,1.091
7.044,0.9704,-0.3693,0.3742,1.104
7.047,0.9864,-0.3612,0.3772,1.1159999999999999
7.049,1.0058,-0.3517,0.3782,1.131
7.053,1.0257,-0.3422,0.3807,1.146
7.054,1.0472,-0.3327,0.3807,1.163
7.056,1.0661,-0.3271,0.3802,1.178
7.059,1.0856,-0.317,0.3783,1.193
7.061,1.108,-0.3098,0.3749,1.21
7.064,1.1295,-0.3047,0.3695,1.227
7.066,1.1534,-0.2966,0.3646,1.246
7.07,1.1774,-0.2899,0.3603,1.265
7.071,1.2042,-0.2808,0.3544,1.286
7.074,1.2321,-0.2746,0.3505,1.31
7.076,1.2584,-0.266,0.349,1.3330000000000002
7.079,1.2867,-0.2568,0.3471,1.357
7.081,1.312,-0.2501,0.3452,1.38
7.083,1.3364,-0.243,0.3447,1.401
7.086,1.3598,-0.2384,0.3438,1.423
7.088,1.3812,-0.2327,0.3453,1.443
7.092,1.4008,-0.2286,0.3453,1.4609999999999999
7.093,1.4203,-0.2235,0.3477,1.479
7.096,1.4397,-0.2193,0.3526,1.4980000000000002
7.098,1.4602,-0.2157,0.3531,1.518
7.101,1.4787,-0.214,0.357,1.536
7.103,1.4992,-0.2123,0.3614,1.557
7.106,1.5163,-0.2126,0.3634,1.574
7.108,1.5319,-0.211,0.3659,1.589
7.11,1.5456,-0.2083,0.3688,1.6030000000000002
7.277,1.5587,-0.2072,0.3703,1.615
7.277,1.5719,-0.2046,0.3713,1.6280000000000001
7.278,1.5835,-0.2006,0.3737,1.639
7.278,1.5947,-0.197,0.3738,1.65
7.278,1.6044,-0.1919,0.3738,1.659
7.278,1.6098,-0.1865,0.3723,1.663
7.278,1.6156,-0.1806,0.3689,1.6669999999999998
7.279,1.6219,-0.1726,0.3655,1.672
7.279,1.6253,-0.1657,0.363,1.6740000000000002
7.279,1.6296,-0.1544,0.3572,1.675
7.279,1.6349,-0.1441,0.3542,1.679
7.279,1.6378,-0.1357,0.3474,1.68
7.28,1.6382,-0.1264,0.3435,1.679
7.28,1.6406,-0.1156,0.3405,1.68
7.28,1.6395,-0.1019,0.3322,1.676
7.28,1.6375,-0.0881,0.3269,1.672
7.281,1.6379,-0.0734,0.32,1.67
7.281,1.6363,-0.0573,0.3083,1.666
7.281,1.6368,-0.0411,0.2941,1.663
7.281,1.6383,-0.0317,0.278,1.662
7.281,1.6398,-0.0204,0.2633,1.661
7.282,1.6438,-0.0159,0.2443,1.662
7.282,1.6498,-0.0173,0.2271,1.665
7.282,1.6593,-0.0215,0.2125,1.673
7.282,1.6718,-0.0327,0.1968,1.6840000000000002
7.282,1.6867,-0.0477,0.187,1.6980000000000002
7.283,1.7026,-0.068,0.1812,1.714
7.283,1.7171,-0.0914,0.1787,1.729
7.283,1.7345,-0.1157,0.1841,1.7480000000000002
7.284,1.7519,-0.1414,0.1885,1.768
7.284,1.7692,-0.1623,0.1934,1.787
7.284,1.7859,-0.1798,0.2042,1.806
7.284,1.7991,-0.1978,0.2237,1.824
7.284,1.8123,-0.2109,0.2423,1.841
7.285,1.8229,-0.2211,0.2628,1.855
7.285,1.8277,-0.2309,0.2873,1.864
7.285,1.83,-0.2368,0.3093,1.871
7.285,1.8275,-0.2412,0.3279,1.8719999999999999
7.285,1.8195,-0.2448,0.3445,1.868
7.285,1.8085,-0.2415,0.3611,1.86
7.286,1.7957,-0.2387,0.3733,1.85
7.286,1.774,-0.2307,0.3807,1.829
7.286,1.7479,-0.2138,0.3836,1.8019999999999998
7.286,1.7208,-0.199,0.3816,1.774
7.287,1.6912,-0.1787,0.3855,1.744
7.287,1.6606,-0.16,0.3943,1.714
7.287,1.6251,-0.1389,0.4046,1.68
7.287,1.5909,-0.1182,0.4173,1.649
7.287,1.5588,-0.098,0.4285,1.62
7.287,1.5298,-0.0817,0.4325,1.5919999999999999
7.288,1.4987,-0.0615,0.4265,1.5590000000000002
7.288,1.4707,-0.0427,0.4211,1.53
7.288,1.4417,-0.023,0.4158,1.501
7.288,1.4127,-0.0037,0.4079,1.47
7.289,1.3862,0.0122,0.3967,1.442
7.289,1.3593,0.0226,0.3869,1.413
7.289,1.3349,0.0323,0.3756,1.3869999999999998
7.289,1.311,0.036,0.3659,1.3619999999999999
7.289,1.2905,0.0377,0.3541,1.339
7.29,1.2725,0.0326,0.3434,1.318
7.29,1.2571,0.025,0.336,1.301
7.29,1.2436,0.0151,0.3262,1.286
7.29,1.236,0.0013,0.3199,1.2770000000000001
7.29,1.227,-0.0164,0.3134,1.2670000000000001
7.291,1.2209,-0.0366,0.309,1.26
7.291,1.2143,-0.0596,0.3119,1.255
7.291,1.2121,-0.0833,0.3129,1.255
7.291,1.2114,-0.1097,0.3203,1.258
7.291,1.2116,-0.1381,0.3271,1.263
7.291,1.2143,-0.168,0.3388,1.272
7.292,1.217,-0.1979,0.3496,1.2819999999999998
7.292,1.2202,-0.2243,0.3584,1.291
7.292,1.2253,-0.2507,0.3671,1.3030000000000002
7.295,1.228,-0.2752,0.3715,1.3119999999999998
7.296,1.2335,-0.2971,0.3783,1.324
7.297,1.2356,-0.3173,0.3861,1.3330000000000002
7.299,1.2367,-0.331,0.394,1.339
7.302,1.2392,-0.3447,0.4008,1.347
7.304,1.2422,-0.3554,0.4091,1.355
7.307,1.2438,-0.3691,0.4164,1.3630000000000002
7.309,1.2492,-0.3794,0.4223,1.3719999999999999
7.312,1.2498,-0.3891,0.4282,1.3769999999999998
7.314,1.2488,-0.3941,0.4336,1.379
7.318,1.2479,-0.4009,0.4346,1.381
7.319,1.2493,-0.4043,0.4371,1.3840000000000001
7.322,1.2488,-0.4093,0.4429,1.3869999999999998
7.324,1.2479,-0.4088,0.4449,1.386
7.334,1.2459,-0.4083,0.4454,1.385
7.335,1.2429,-0.402,0.4473,1.381
7.335,1.2388,-0.3918,0.4444,1.3730000000000002
7.335,1.2338,-0.3791,0.4458,1.3659999999999999
7.336,1.2283,-0.3645,0.4429,1.3559999999999999
7.339,1.2194,-0.3479,0.44,1.3419999999999999
7.341,1.2094,-0.3304,0.4346,1.327
7.343,1.2004,-0.3133,0.4302,1.3130000000000002
7.346,1.193,-0.2967,0.4228,1.3
7.351,1.1841,-0.2801,0.413,1.285
7.351,1.1762,-0.2655,0.4028,1.271
7.353,1.1693,-0.2528,0.392,1.2590000000000001
7.356,1.163,-0.2387,0.3793,1.246
7.358,1.158,-0.2275,0.3681,1.236
7.365,1.1521,-0.2138,0.3549,1.224
7.365,1.1511,-0.2035,0.3427,1.218
7.366,1.1477,-0.1947,0.3295,1.21
7.368,1.1428,-0.1869,0.3167,1.2009999999999998
7.371,1.139,-0.181,0.3006,1.192
7.373,1.1337,-0.1762,0.2854,1.182
7.375,1.1313,-0.1727,0.2732,1.177
7.378,1.1261,-0.1699,0.2615,1.168
7.38,1.1208,-0.1674,0.2483,1.16
7.383,1.1165,-0.1665,0.2341,1.153
7.385,1.1083,-0.1632,0.2219,1.1420000000000001
7.388,1.102,-0.1617,0.2097,1.133
7.393,1.0944,-0.1628,0.1978,1.124
7.393,1.0881,-0.1613,0.1856,1.1159999999999999
7.395,1.0828,-0.1594,0.1754,1.1079999999999999
7.398,1.0746,-0.1605,0.1651,1.099
7.4,1.0679,-0.161,0.1505,1.09
7.403,1.0627,-0.164,0.1377,1.084
7.405,1.056,-0.1646,0.1275,1.0759999999999998
7.408,1.0488,-0.1676,0.1177,1.069
7.41,1.0459,-0.1705,0.1069,1.065
7.412,1.0406,-0.1735,0.1015,1.06
7.415,1.0373,-0.1784,0.0947,1.057
7.417,1.0369,-0.1833,0.0898,1.057
7.42,1.0356,-0.1912,0.0859,1.057
7.422,1.0328,-0.1986,0.0814,1.055
7.425,1.0294,-0.2065,0.0824,1.053
7.428,1.0271,-0.2173,0.0819,1.053
7.432,1.0243,-0.2271,0.0814,1.052
7.432,1.021,-0.236,0.0844,1.051
7.434,1.0171,-0.2473,0.0858,1.05
7.437,1.0133,-0.2571,0.0897,1.0490000000000002
7.439,1.0095,-0.2709,0.0961,1.05
7.442,1.0072,-0.2822,0.1,1.051
7.444,1.0053,-0.293,0.1044,1.052
7.447,1.0039,-0.3058,0.1112,1.055
7.451,1.0016,-0.3186,0.1166,1.057
7.452,0.9987,-0.3294,0.1234,1.0590000000000002
7.454,0.9973,-0.3412,0.1278,1.062
7.456,0.9969,-0.3539,0.1312,1.0659999999999998
7.46,0.995,-0.3622,0.1356,1.068
7.462,0.9937,-0.376,0.141,1.072
7.464,0.9913,-0.3872,0.1454,1.074
7.467,0.9909,-0.4005,0.1498,1.079
7.469,0.9872,-0.4103,0.1517,1.08
7.472,0.9833,-0.4197,0.1566,1.081
7.474,0.9814,-0.4306,0.164,1.084
7.476,0.9795,-0.4389,0.1708,1.087
7.478,0.9772,-0.4507,0.1727,1.09
7.482,0.9723,-0.462,0.1767,1.091
7.487,0.9704,-0.4709,0.182,1.094
7.488,0.9676,-0.4802,0.1894,1.097
7.488,0.9617,-0.4881,0.1942,1.0959999999999999
7.492,0.9588,-0.496,0.1996,1.0979999999999999
7.494,0.954,-0.5054,0.2035,1.099
7.5,0.9491,-0.5103,0.2079,1.097
7.5,0.9448,-0.5173,0.2103,1.097
7.501,0.9414,-0.5202,0.2157,1.097
7.503,0.9389,-0.5242,0.2201,1.0979999999999999
7.506,0.936,-0.5286,0.2265,1.099
7.508,0.9345,-0.536,0.2343,1.103
7.51,0.9311,-0.5425,0.2396,1.104
7.513,0.9272,-0.5513,0.2495,1.107
7.515,0.9223,-0.5602,0.2583,1.11
7.518,0.9179,-0.5681,0.2671,1.112
7.52,0.9115,-0.5721,0.2744,1.111
7.523,0.9071,-0.5742,0.2793,1.109
7.525,0.9041,-0.5732,0.2837,1.107
7.528,0.9002,-0.5728,0.2856,1.105
7.53,0.8952,-0.5679,0.2846,1.0979999999999999
7.533,0.8883,-0.5641,0.2851,1.09
7.535,0.8844,-0.5573,0.2807,1.082
7.537,0.8785,-0.5495,0.2763,1.072
7.54,0.8775,-0.5427,0.2714,1.067
7.542,0.8741,-0.5382,0.266,1.06
7.545,0.8726,-0.5333,0.2611,1.055
7.547,0.8745,-0.5294,0.2548,1.054
7.551,0.8761,-0.5279,0.2499,1.053
7.552,0.8805,-0.5278,0.244,1.055
7.555,0.885,-0.5287,0.2411,1.0590000000000002
7.557,0.8928,-0.5297,0.2382,1.065
7.559,0.8992,-0.5305,0.2338,1.07
7.563,0.9081,-0.5329,0.2299,1.078
7.564,0.9165,-0.5362,0.227,1.0859999999999999
7.567,0.9243,-0.5391,0.2245,1.093
7.569,0.9347,-0.5414,0.2211,1.103
7.573,0.9421,-0.5463,0.2216,1.111
7.574,0.953,-0.5515,0.2172,1.122
7.577,0.9563,-0.5514,0.2182,1.125
7.579,0.9682,-0.5547,0.2147,1.136
7.582,0.981,-0.5615,0.2099,1.15
7.585,0.9919,-0.5691,0.2099,1.163
7.587,1.0013,-0.5789,0.2079,1.175
7.589,1.0097,-0.5865,0.2045,1.185
7.591,1.0176,-0.5943,0.2001,1.195
7.594,1.0261,-0.605,0.1971,1.207
7.597,1.0345,-0.6147,0.1956,1.219
7.599,1.0444,-0.6263,0.1951,1.2329999999999999
7.601,1.052,-0.6365,0.1922,1.244
7.604,1.0594,-0.6462,0.1922,1.256
7.61,1.0659,-0.6599,0.1981,1.2690000000000001
7.61,1.0694,-0.6726,0.2006,1.2790000000000001
7.612,1.0735,-0.6857,0.2025,1.29
7.614,1.075,-0.6975,0.2089,1.298
7.617,1.0726,-0.7073,0.2147,1.3030000000000002
7.622,1.0707,-0.7152,0.2187,1.306
7.623,1.0644,-0.7202,0.226,1.305
7.623,1.0569,-0.7222,0.2367,1.3019999999999998
7.626,1.0477,-0.7253,0.244,1.297
7.63,1.0377,-0.7254,0.2514,1.291
7.631,1.0274,-0.7265,0.2582,1.285
7.633,1.0161,-0.7272,0.2641,1.2770000000000001
7.635,1.0009,-0.7254,0.268,1.265
7.638,0.9871,-0.7241,0.2768,1.255
7.641,0.9753,-0.7257,0.2846,1.249
7.643,0.9675,-0.7297,0.2899,1.246
7.646,0.9621,-0.7327,0.2934,1.244
7.648,0.9627,-0.7381,0.2973,1.249
7.651,0.9667,-0.7469,0.2982,1.2570000000000001
7.653,0.9751,-0.7571,0.2987,1.27
7.655,0.9884,-0.7697,0.2982,1.288
7.658,1.0057,-0.7866,0.2973,1.311
7.66,1.0207,-0.809,0.2948,1.335
7.663,1.0321,-0.8275,0.2987,1.3559999999999999
7.665,1.0461,-0.8518,0.2987,1.382
7.668,1.0592,-0.8815,0.3002,1.41
7.67,1.0678,-0.9104,0.3007,1.435
7.672,1.0734,-0.9372,0.3051,1.4569999999999999
7.675,1.0751,-0.9622,0.3119,1.476
7.677,1.0743,-0.9842,0.3198,1.492
7.68,1.0701,-1.0049,0.3271,1.504
7.682,1.0604,-1.0202,0.3349,1.5090000000000001
7.686,1.0433,-1.0317,0.3442,1.507
7.687,1.0209,-1.0379,0.352,1.4980000000000002
7.69,0.9934,-1.0372,0.3549,1.479
7.692,0.9615,-1.0264,0.3593,1.452
7.695,0.9275,-1.0081,0.3548,1.415
7.697,0.8911,-0.9825,0.347,1.371
7.7,0.8532,-0.953,0.3426,1.324
7.702,0.8093,-0.9164,0.3377,1.268
7.704,0.7644,-0.8786,0.3377,1.213
7.711,0.7208,-0.8385,0.3412,1.157
7.711,0.6754,-0.7979,0.3391,1.099
7.712,0.6345,-0.762,0.3333,1.046
7.714,0.5975,-0.7301,0.3279,0.9990000000000001
7.717,0.5614,-0.6939,0.325,0.95
7.723,0.5268,-0.6605,0.3221,0.904
7.723,0.4961,-0.6216,0.3167,0.856
7.724,0.4687,-0.5871,0.3167,0.815
7.727,0.4454,-0.5516,0.3172,0.777
7.73,0.4235,-0.5185,0.3181,0.741
7.732,0.4089,-0.4864,0.3211,0.7120000000000001
7.734,0.3998,-0.4571,0.3216,0.687
7.736,0.396,-0.4292,0.3221,0.667
7.739,0.3952,-0.4062,0.3225,0.652
7.741,0.4038,-0.387,0.3231,0.6459999999999999
7.744,0.4154,-0.3702,0.3221,0.643
7.747,0.4333,-0.3597,0.3231,0.649
7.748,0.4548,-0.3536,0.3241,0.6609999999999999
7.751,0.4831,-0.3489,0.3246,0.679
7.753,0.5168,-0.3529,0.3246,0.705
7.756,0.5566,-0.3588,0.3192,0.735
7.758,0.5984,-0.3691,0.309,0.768
7.761,0.6362,-0.3789,0.2992,0.799
7.764,0.6756,-0.3916,0.286,0.8320000000000001
7.766,0.7087,-0.4045,0.2699,0.8590000000000001
7.768,0.7374,-0.4183,0.2553,0.885
7.77,0.765,-0.4307,0.2377,0.91
7.773,0.7908,-0.4446,0.2196,0.9329999999999999
7.775,0.8147,-0.4599,0.197,0.956
7.778,0.8321,-0.4744,0.18,0.975
7.78,0.8521,-0.4903,0.1604,0.996
7.783,0.8661,-0.5058,0.1409,1.013
7.786,0.8812,-0.5237,0.1188,1.032
7.788,0.8924,-0.5432,0.0978,1.0490000000000002
7.79,0.9035,-0.5607,0.0792,1.0659999999999998
7.793,0.9127,-0.5786,0.0611,1.082
7.795,0.9208,-0.5942,0.045,1.097
7.798,0.926,-0.6063,0.0284,1.107
7.8,0.9302,-0.6155,0.0132,1.1159999999999999
7.803,0.9299,-0.6234,-0.001,1.12
7.805,0.9267,-0.6283,-0.0161,1.12
7.808,0.9229,-0.6307,-0.0308,1.1179999999999999
7.81,0.9177,-0.6279,-0.0445,1.113
7.812,0.9095,-0.625,-0.0582,1.105
7.815,0.9021,-0.6173,-0.069,1.095
7.817,0.8919,-0.6046,-0.0797,1.08
7.82,0.884,-0.5919,-0.09,1.068
7.822,0.8775,-0.5749,-0.0997,1.054
7.825,0.8706,-0.5568,-0.1076,1.0390000000000001
7.827,0.8615,-0.5363,-0.1115,1.021
7.83,0.856,-0.5143,-0.1193,1.006
7.832,0.8513,-0.4913,-0.1237,0.991
7.834,0.8497,-0.4698,-0.1271,0.9790000000000001
7.837,0.8509,-0.4468,-0.1286,0.97
7.839,0.8512,-0.4256,-0.1276,0.96
7.845,0.8548,-0.4051,-0.129,0.955
7.846,0.8604,-0.3864,-0.1256,0.9520000000000001
7.847,0.869,-0.3672,-0.1221,0.951
8.024,0.8775,-0.3519,-0.1182,0.953
8.024,0.8872,-0.3381,-0.1197,0.9570000000000001
8.024,0.8924,-0.3243,-0.1187,0.9570000000000001
8.025,0.8996,-0.3145,-0.1109,0.9590000000000001
8.025,0.9027,-0.3017,-0.106,0.958
8.025,0.9075,-0.2938,-0.0996,0.9590000000000001
8.025,0.9112,-0.2845,-0.0922,0.9590000000000001
8.026,0.912,-0.2761,-0.0834,0.9570000000000001
8.026,0.9148,-0.2693,-0.0781,0.9570000000000001
8.026,0.9166,-0.2599,-0.0678,0.955
8.027,0.915,-0.2536,-0.0634,0.9520000000000001
8.027,0.9135,-0.2472,-0.0639,0.9490000000000001
8.027,0.9085,-0.2424,-0.0624,0.9420000000000001
8.027,0.903,-0.2385,-0.0571,0.9359999999999999
8.027,0.8955,-0.2318,-0.0439,0.9259999999999999
8.028,0.8903,-0.2221,-0.0277,0.9179999999999999
8.028,0.886,-0.2212,-0.0281,0.914
8.028,0.8776,-0.2227,-0.0257,0.9059999999999999
8.029,0.8654,-0.2229,-0.0242,0.894
8.029,0.8574,-0.2186,-0.014,0.885
8.029,0.8476,-0.2163,-0.0067,0.875
8.029,0.8357,-0.2144,0.0016,0.863
8.029,0.8234,-0.2112,0.008,0.85
8.03,0.8119,-0.2055,0.0192,0.838
8.03,0.801,-0.2012,0.0344,0.8270000000000001
8.03,0.7939,-0.1954,0.0534,0.8190000000000001
8.03,0.7874,-0.1935,0.0666,0.8140000000000001
8.03,0.7843,-0.1931,0.0793,0.812
8.031,0.7797,-0.1897,0.097,0.8079999999999999
8.031,0.7737,-0.1903,0.1126,0.805
8.031,0.7683,-0.1944,0.1268,0.8029999999999999
8.031,0.7589,-0.1964,0.14,0.7959999999999999
8.031,0.7504,-0.2,0.1541,0.792
8.032,0.7441,-0.2075,0.1624,0.789
8.032,0.7348,-0.2135,0.1732,0.785
8.032,0.723,-0.2176,0.1849,0.777
8.032,0.7142,-0.2226,0.1951,0.773
8.033,0.7034,-0.2266,0.2016,0.7659999999999999
8.033,0.6931,-0.2296,0.206,0.759
8.033,0.6823,-0.2342,0.2113,0.752
8.033,0.6726,-0.2378,0.2128,0.7440000000000001
8.034,0.6624,-0.2418,0.2133,0.737
8.034,0.6526,-0.2429,0.2152,0.7290000000000001
8.034,0.6472,-0.2454,0.2138,0.7240000000000001
8.034,0.6414,-0.2489,0.2138,0.72
8.034,0.6341,-0.2494,0.2108,0.713
8.035,0.6322,-0.2505,0.2088,0.711
8.035,0.6288,-0.2509,0.2054,0.7070000000000001
8.035,0.6268,-0.2515,0.2044,0.706
8.035,0.6279,-0.2519,0.1985,0.705
8.035,0.6274,-0.2519,0.1941,0.703
8.036,0.6309,-0.2509,0.1902,0.705
8.036,0.6334,-0.2523,0.1853,0.7070000000000001
8.036,0.6349,-0.2514,0.1824,0.7070000000000001
8.036,0.6384,-0.2518,0.1775,0.7090000000000001
8.036,0.6418,-0.2522,0.1751,0.711
8.037,0.6481,-0.2512,0.1746,0.7170000000000001
8.037,0.6535,-0.2487,0.1741,0.721
8.037,0.6618,-0.2486,0.1746,0.728
8.037,0.6696,-0.25,0.1751,0.736
8.037,0.6789,-0.2494,0.1746,0.7440000000000001
8.037,0.6867,-0.2493,0.1751,0.7509999999999999
8.038,0.6956,-0.2501,0.1742,0.759
8.038,0.703,-0.253,0.1746,0.767
8.038,0.7122,-0.2524,0.1766,0.7759999999999999
8.039,0.7215,-0.2537,0.1771,0.785
8.039,0.7304,-0.2566,0.1771,0.794
8.039,0.7407,-0.2584,0.1776,0.804
8.039,0.75,-0.2617,0.179,0.8140000000000001
8.039,0.7612,-0.2631,0.1785,0.825
8.04,0.7769,-0.2624,0.179,0.8390000000000001
8.04,0.7934,-0.2617,0.1805,0.855
8.04,0.81,-0.2572,0.184,0.8690000000000001
8.04,0.829,-0.2555,0.1879,0.888
8.04,0.8466,-0.2528,0.1923,0.904
8.041,0.8656,-0.2507,0.1977,0.9229999999999999
8.041,0.8836,-0.2529,0.1992,0.94
8.041,0.8978,-0.2547,0.2036,0.955
8.041,0.9139,-0.2565,0.208,0.972
8.043,0.9265,-0.2578,0.2144,0.985
8.045,0.9417,-0.2581,0.2218,1.001
8.048,0.9582,-0.2594,0.2296,1.0190000000000001
8.05,0.9729,-0.2603,0.234,1.034
8.053,0.987,-0.2611,0.2418,1.0490000000000002
8.055,1.0006,-0.2605,0.2472,1.063
8.058,1.0138,-0.2593,0.2516,1.0759999999999998
8.06,1.0288,-0.2577,0.2584,1.092
8.063,1.0444,-0.2536,0.2668,1.107
8.066,1.0585,-0.2486,0.2721,1.121
8.07,1.0749,-0.2425,0.2824,1.138
8.07,1.0914,-0.234,0.2873,1.153
8.072,1.1064,-0.2255,0.2922,1.166
8.075,1.1224,-0.218,0.2967,1.181
8.085,1.1389,-0.2124,0.2986,1.196
8.086,1.1535,-0.2044,0.2986,1.209
8.086,1.1691,-0.1964,0.2986,1.222
8.086,1.1852,-0.1903,0.2972,1.237
8.087,1.2017,-0.1823,0.2938,1.25
8.091,1.2183,-0.1776,0.2894,1.265
8.092,1.2368,-0.1686,0.2835,1.28
8.094,1.2568,-0.1625,0.2796,1.298
8.097,1.2755,-0.1569,0.2733,1.314
8.104,1.294,-0.1508,0.2689,1.33
8.104,1.3145,-0.1456,0.2646,1.349
8.105,1.3336,-0.1425,0.2636,1.367
8.107,1.3521,-0.1389,0.2602,1.3840000000000001
8.109,1.3712,-0.1381,0.2553,1.402
8.112,1.3888,-0.1374,0.2558,1.419
8.114,1.4065,-0.1362,0.2529,1.435
8.116,1.4217,-0.139,0.249,1.45
8.119,1.4344,-0.1379,0.2485,1.462
8.122,1.4485,-0.1367,0.2519,1.4769999999999999
8.124,1.4588,-0.1366,0.2519,1.4869999999999999
8.126,1.47,-0.1355,0.2524,1.4980000000000002
8.129,1.4778,-0.1334,0.2529,1.505
8.132,1.4846,-0.1314,0.2558,1.5119999999999998
8.134,1.4923,-0.1309,0.2603,1.521
8.136,1.4977,-0.1279,0.2622,1.526
8.139,1.4996,-0.1254,0.2608,1.527
8.141,1.502,-0.1244,0.2598,1.5290000000000001
8.145,1.501,-0.1215,0.2647,1.5290000000000001
8.146,1.5014,-0.1176,0.2666,1.5290000000000001
8.148,1.4985,-0.1146,0.2647,1.526
8.151,1.494,-0.1152,0.2652,1.5219999999999998
8.153,1.4862,-0.1113,0.2666,1.514
8.156,1.4779,-0.108,0.2676,1.506
8.158,1.4695,-0.1052,0.2657,1.4969999999999999
8.161,1.4636,-0.1028,0.2676,1.4909999999999999
8.163,1.4597,-0.0994,0.2646,1.4869999999999999
8.166,1.4549,-0.097,0.2563,1.48
8.168,1.4529,-0.095,0.2529,1.4780000000000002
8.171,1.4539,-0.0985,0.2495,1.4780000000000002
8.173,1.4589,-0.1014,0.249,1.483
8.175,1.4615,-0.1096,0.2456,1.486
8.179,1.4699,-0.1223,0.2412,1.495
8.18,1.478,-0.1369,0.2348,1.5030000000000001
8.183,1.4895,-0.1529,0.2324,1.515
8.185,1.498,-0.1719,0.2338,1.526
8.188,1.5071,-0.1914,0.2334,1.537
8.192,1.5136,-0.2095,0.2363,1.546
8.193,1.5176,-0.2251,0.2417,1.5530000000000002
8.195,1.5216,-0.2398,0.2475,1.56
8.198,1.5217,-0.2535,0.2568,1.564
8.2,1.5227,-0.2608,0.2666,1.568
8.206,1.5202,-0.2658,0.2739,1.567
8.207,1.5163,-0.2644,0.2812,1.565
8.207,1.5083,-0.2581,0.2861,1.557
8.21,1.5013,-0.2518,0.291,1.55
8.213,1.4942,-0.2367,0.2944,1.541
8.215,1.4842,-0.2216,0.2983,1.53
8.217,1.4743,-0.2046,0.2973,1.518
8.219,1.4614,-0.1847,0.2949,1.5019999999999998
8.223,1.4494,-0.1618,0.2939,1.4880000000000002
8.225,1.4359,-0.1384,0.2939,1.472
8.227,1.4234,-0.1151,0.2954,1.4580000000000002
8.23,1.4075,-0.0903,0.2974,1.4409999999999998
8.234,1.3964,-0.0683,0.2969,1.429
8.236,1.3844,-0.0464,0.294,1.416
8.237,1.3739,-0.024,0.2915,1.405
8.239,1.3644,-0.0006,0.2886,1.395
8.242,1.3525,0.0208,0.2837,1.382
8.245,1.3405,0.0428,0.2788,1.37
8.247,1.3291,0.0642,0.2735,1.358
8.249,1.3171,0.0841,0.2783,1.349
8.252,1.3112,0.0968,0.2632,1.341
8.255,1.3014,0.109,0.2529,1.33
8.257,1.2926,0.1177,0.2422,1.32
8.259,1.2863,0.125,0.2299,1.3130000000000002
8.261,1.2839,0.1313,0.2187,1.3090000000000002
8.264,1.2855,0.1338,0.205,1.3090000000000002
8.266,1.2861,0.1358,0.1928,1.308
8.269,1.2881,0.1368,0.1825,1.308
8.271,1.2892,0.1325,0.1751,1.308
8.273,1.2933,0.1276,0.1634,1.31
8.276,1.2979,0.1188,0.1522,1.3119999999999998
8.279,1.3001,0.1091,0.1434,1.3119999999999998
8.281,1.3032,0.095,0.137,1.314
8.283,1.3079,0.0774,0.1301,1.317
8.286,1.311,0.0593,0.1262,1.318
8.288,1.3142,0.0383,0.1233,1.321
8.292,1.3189,0.0153,0.1253,1.325
8.293,1.3255,-0.0052,0.1287,1.3319999999999999
8.296,1.332,-0.0291,0.1345,1.339
8.298,1.3361,-0.0536,0.1404,1.345
8.304,1.3413,-0.077,0.1482,1.3519999999999999
8.305,1.3454,-0.1035,0.1599,1.359
8.306,1.3485,-0.1275,0.1653,1.365
8.308,1.3541,-0.1504,0.1716,1.3730000000000002
8.31,1.3582,-0.171,0.1785,1.38
8.317,1.3612,-0.1881,0.1843,1.386
8.318,1.3692,-0.2042,0.1912,1.3969999999999998
8.319,1.3717,-0.2174,0.1961,1.403
8.32,1.3777,-0.232,0.201,1.411
8.324,1.3812,-0.2428,0.2064,1.4169999999999998
8.325,1.3813,-0.2531,0.2103,1.42
8.328,1.3794,-0.257,0.2127,1.419
8.33,1.3725,-0.2615,0.2235,1.415
8.332,1.3693,-0.264,0.2474,1.416
8.335,1.3734,-0.2689,0.2337,1.419
8.337,1.3711,-0.2704,0.2235,1.415
8.527,1.3691,-0.2718,0.2284,1.4140000000000001
8.527,1.3661,-0.2689,0.2332,1.412
8.527,1.365,-0.2621,0.2391,1.41
8.527,1.3634,-0.2553,0.2494,1.409
8.527,1.3626,-0.2445,0.2689,1.41
8.528,1.3578,-0.2304,0.288,1.4069999999999998
8.528,1.3536,-0.2144,0.3017,1.403
8.528,1.3494,-0.2022,0.3109,1.399
8.528,1.3443,-0.1875,0.3183,1.3940000000000001
8.528,1.3402,-0.1748,0.3228,1.39
8.529,1.3352,-0.1611,0.3257,1.3840000000000001
8.529,1.3291,-0.15,0.3291,1.3769999999999998
8.529,1.3256,-0.1392,0.3301,1.3730000000000002
8.529,1.3201,-0.1295,0.3286,1.367
8.529,1.3175,-0.1178,0.3238,1.3619999999999999
8.53,1.3146,-0.1085,0.3184,1.357
8.53,1.3121,-0.0983,0.312,1.3519999999999999
8.53,1.3101,-0.089,0.3071,1.349
8.53,1.3066,-0.0841,0.3027,1.344
8.53,1.3022,-0.0772,0.2959,1.338
8.53,1.2993,-0.0743,0.2895,1.3330000000000002
8.531,1.2954,-0.0685,0.2826,1.328
8.531,1.2915,-0.0675,0.2753,1.3219999999999998
8.531,1.2882,-0.0666,0.268,1.317
8.531,1.2828,-0.0681,0.2621,1.311
8.531,1.2775,-0.0676,0.2543,1.304
8.532,1.2717,-0.0692,0.2475,1.297
8.532,1.2673,-0.0707,0.2436,1.2919999999999998
8.532,1.2626,-0.0761,0.2352,1.287
8.532,1.2544,-0.0801,0.2298,1.278
8.532,1.2482,-0.0895,0.2249,1.271
8.533,1.2391,-0.098,0.2201,1.262
8.533,1.2295,-0.1098,0.2141,1.253
8.533,1.2214,-0.1221,0.2073,1.245
8.533,1.2137,-0.135,0.2019,1.238
8.533,1.2042,-0.1478,0.1941,1.229
8.533,1.1971,-0.1621,0.1886,1.2229999999999999
8.534,1.19,-0.1734,0.1803,1.216
8.534,1.1829,-0.1847,0.1759,1.21
8.534,1.1747,-0.1961,0.1715,1.203
8.534,1.1671,-0.205,0.1676,1.197
8.534,1.1583,-0.2188,0.1651,1.19
8.535,1.1482,-0.2287,0.1637,1.182
8.535,1.1396,-0.242,0.1588,1.176
8.535,1.1305,-0.2544,0.1578,1.169
8.535,1.1208,-0.2658,0.1563,1.162
8.535,1.1127,-0.2776,0.1568,1.157
8.535,1.1016,-0.2895,0.1577,1.15
8.536,1.0934,-0.3014,0.1602,1.145
8.536,1.0837,-0.3138,0.1611,1.14
8.536,1.0751,-0.3256,0.1646,1.135
8.536,1.0639,-0.337,0.1689,1.129
8.536,1.0537,-0.3474,0.1733,1.123
8.537,1.0449,-0.3559,0.1762,1.1179999999999999
8.537,1.0352,-0.3653,0.1821,1.113
8.537,1.0255,-0.3747,0.1865,1.1079999999999999
8.537,1.0182,-0.3831,0.1914,1.105
8.537,1.0094,-0.3921,0.1962,1.101
8.537,0.9968,-0.4,0.2012,1.093
8.538,0.9871,-0.407,0.2051,1.087
8.538,0.9773,-0.4154,0.2089,1.082
8.538,0.9676,-0.4219,0.2138,1.077
8.538,0.9564,-0.4295,0.2177,1.071
8.538,0.9472,-0.435,0.2226,1.0659999999999998
8.539,0.9384,-0.4419,0.2265,1.062
8.539,0.9267,-0.4469,0.228,1.054
8.539,0.9164,-0.452,0.2309,1.048
8.539,0.9047,-0.4551,0.2329,1.0390000000000001
8.539,0.8925,-0.4562,0.2353,1.03
8.539,0.8817,-0.4583,0.2363,1.021
8.54,0.869,-0.4604,0.2372,1.012
8.54,0.8582,-0.4585,0.2396,1.002
8.54,0.849,-0.4582,0.2401,0.9940000000000001
8.54,0.8392,-0.4583,0.2367,0.985
8.54,0.8285,-0.4579,0.2357,0.976
8.541,0.8192,-0.4585,0.2357,0.968
8.541,0.8079,-0.4596,0.2309,0.958
8.541,0.8001,-0.4582,0.2265,0.9490000000000001
8.541,0.7915,-0.4583,0.2191,0.94
8.541,0.7822,-0.4599,0.2147,0.932
8.541,0.7739,-0.459,0.2078,0.9229999999999999
8.542,0.7647,-0.4581,0.2015,0.914
8.542,0.7565,-0.4596,0.1951,0.9059999999999999
8.544,0.7482,-0.4597,0.1863,0.898
8.546,0.7429,-0.4603,0.1809,0.892
8.551,0.7362,-0.4598,0.1745,0.885
8.551,0.7318,-0.4589,0.1696,0.88
8.553,0.728,-0.4599,0.1648,0.877
8.556,0.7261,-0.4624,0.1594,0.875
8.569,0.7242,-0.4639,0.1516,0.873
8.569,0.7228,-0.4653,0.1462,0.872
8.569,0.7219,-0.4668,0.1398,0.871
8.57,0.7214,-0.4668,0.1369,0.87
8.57,0.72,-0.4678,0.1295,0.868
8.571,0.7201,-0.4683,0.1256,0.868
8.573,0.7197,-0.4688,0.1212,0.867
8.576,0.7212,-0.4707,0.1154,0.8690000000000001
8.578,0.7218,-0.4726,0.1115,0.87
8.581,0.7219,-0.4731,0.1036,0.8690000000000001
8.583,0.7224,-0.4761,0.0973,0.871
8.585,0.722,-0.4785,0.0929,0.871
8.588,0.7226,-0.4809,0.0875,0.872
8.59,0.7226,-0.4819,0.0841,0.873
8.593,0.7222,-0.4844,0.0787,0.873
8.595,0.7208,-0.4878,0.0737,0.873
8.598,0.7185,-0.4917,0.0698,0.873
8.6,0.7171,-0.4942,0.0645,0.873
8.602,0.7157,-0.4957,0.0596,0.873
8.606,0.7148,-0.4981,0.0547,0.873
8.607,0.7129,-0.5001,0.0488,0.872
8.61,0.712,-0.5035,0.043,0.873
8.612,0.7126,-0.5069,0.0386,0.875
8.616,0.7107,-0.5089,0.0332,0.875
8.617,0.7103,-0.5109,0.0293,0.875
8.619,0.7108,-0.5143,0.0258,0.878
8.622,0.71,-0.5172,0.0214,0.879
8.625,0.7114,-0.5187,0.0195,0.8809999999999999
8.627,0.71,-0.5206,0.0195,0.8809999999999999
8.629,0.712,-0.5221,0.0175,0.883
8.632,0.7111,-0.5236,0.0161,0.883
8.634,0.713,-0.5245,0.0141,0.885
8.638,0.7116,-0.5245,0.0141,0.884
8.639,0.714,-0.525,0.0136,0.8859999999999999
8.642,0.7126,-0.5254,0.0121,0.885
8.645,0.7136,-0.5259,0.0117,0.887
8.646,0.7165,-0.5264,0.0117,0.889
8.649,0.7189,-0.5268,0.0107,0.8909999999999999
8.652,0.7229,-0.5249,0.0136,0.893
8.654,0.7272,-0.5234,0.0156,0.8959999999999999
8.656,0.7325,-0.5199,0.019,0.898
8.672,0.7368,-0.5164,0.0215,0.9
8.672,0.7402,-0.5129,0.0225,0.9009999999999999
8.672,0.7465,-0.508,0.0259,0.903
8.673,0.7523,-0.502,0.0264,0.905
8.673,0.7595,-0.499,0.0283,0.909
8.673,0.7673,-0.4964,0.0293,0.914
8.674,0.777,-0.4914,0.0293,0.92
8.676,0.7877,-0.4894,0.0293,0.9279999999999999
8.678,0.8004,-0.4897,0.0294,0.9390000000000001
8.682,0.8127,-0.4916,0.0289,0.95
8.683,0.826,-0.4924,0.0279,0.9620000000000001
8.686,0.8403,-0.4996,0.0245,0.978
8.688,0.8531,-0.5048,0.022,0.991
8.692,0.8673,-0.5129,0.023,1.008
8.694,0.8801,-0.5211,0.0259,1.023
8.696,0.8919,-0.5332,0.0255,1.0390000000000001
8.698,0.9004,-0.5464,0.0269,1.054
8.701,0.907,-0.5625,0.0279,1.068
8.703,0.9145,-0.5795,0.0289,1.083
8.706,0.9186,-0.5971,0.0284,1.0959999999999999
8.708,0.9203,-0.6157,0.0313,1.1079999999999999
8.71,0.9204,-0.6338,0.0289,1.1179999999999999
8.713,0.9196,-0.648,0.0308,1.125
8.716,0.9119,-0.654,0.0322,1.123
8.718,0.9066,-0.6688,0.0322,1.127
8.72,0.9059,-0.6815,0.0273,1.1340000000000001
8.723,0.9065,-0.6948,0.0264,1.1420000000000001
8.725,0.9037,-0.7061,0.0308,1.147
8.728,0.9008,-0.7139,0.0332,1.15
8.73,0.8965,-0.7179,0.0376,1.149
8.733,0.8925,-0.7243,0.0425,1.15
8.735,0.8866,-0.7239,0.0532,1.146
8.738,0.8777,-0.7225,0.064,1.139
8.74,0.8668,-0.7227,0.0776,1.131
8.742,0.851,-0.72,0.0919,1.1179999999999999
8.745,0.8336,-0.7138,0.1055,1.103
8.747,0.8128,-0.7048,0.1256,1.083
8.75,0.7948,-0.6948,0.1491,1.0659999999999998
8.752,0.778,-0.6842,0.1637,1.0490000000000002
8.755,0.7576,-0.6688,0.1769,1.026
8.757,0.7406,-0.6533,0.1964,1.0070000000000001
8.76,0.7329,-0.6378,0.2185,0.996
8.764,0.7228,-0.6193,0.2322,0.98
8.764,0.7146,-0.5944,0.2444,0.961
8.767,0.7084,-0.5745,0.2556,0.9470000000000001
8.77,0.7025,-0.5481,0.2679,0.93
8.779,0.7001,-0.5236,0.2782,0.917
8.78,0.6969,-0.5016,0.2884,0.9059999999999999
8.78,0.697,-0.4776,0.2978,0.8959999999999999
8.78,0.703,-0.4541,0.309,0.892
8.782,0.712,-0.4315,0.3169,0.8909999999999999
8.784,0.7363,-0.3861,0.3199,0.8909999999999999
8.786,0.7683,-0.329,0.3351,0.9
8.789,0.7821,-0.3215,0.3664,0.922
8.791,0.7978,-0.3316,0.3703,0.94
8.794,0.8176,-0.3436,0.362,0.958
8.796,0.8514,-0.327,0.3346,0.971
8.799,0.8918,-0.3069,0.3312,1.0
8.801,0.935,-0.2893,0.3415,1.037
8.804,0.9749,-0.2717,0.342,1.068
8.807,1.0027,-0.2606,0.3343,1.089
8.809,1.0298,-0.2651,0.3181,1.11
8.812,1.0531,-0.2741,0.2951,1.128
8.813,1.0735,-0.2817,0.2746,1.143
8.817,1.0972,-0.2858,0.2541,1.162
8.818,1.1189,-0.2919,0.2375,1.18
8.821,1.1426,-0.2999,0.2233,1.202
8.823,1.164,-0.3129,0.2062,1.2229999999999999
8.826,1.1785,-0.3284,0.1886,1.238
8.828,1.1921,-0.3453,0.1724,1.253
9.03,1.2017,-0.3638,0.1558,1.265
9.031,1.21,-0.3852,0.1377,1.2770000000000001
9.031,1.2128,-0.4072,0.1231,1.285
9.031,1.2103,-0.4303,0.1088,1.2890000000000001
9.031,1.2048,-0.4509,0.0927,1.29
9.032,1.1949,-0.4696,0.076,1.286
9.032,1.1844,-0.4853,0.0653,1.2819999999999998
9.032,1.17,-0.4982,0.054,1.273
9.032,1.1555,-0.5057,0.0442,1.262
9.033,1.1401,-0.5147,0.0354,1.251
9.033,1.1231,-0.5198,0.027,1.238
9.033,1.1011,-0.521,0.0222,1.218
9.033,1.0817,-0.5242,0.0163,1.202
9.033,1.0617,-0.5239,0.0114,1.1840000000000002
9.034,1.0422,-0.5236,0.007,1.166
9.034,1.0246,-0.5218,0.0016,1.15
9.034,1.0089,-0.5147,-0.0013,1.133
9.034,0.9961,-0.5075,-0.0033,1.1179999999999999
9.034,0.978,-0.5004,-0.0072,1.099
9.035,0.9642,-0.4922,-0.0067,1.083
9.035,0.9543,-0.482,-0.0043,1.069
9.035,0.9448,-0.4709,-0.0004,1.056
9.035,0.9403,-0.4607,0.0045,1.047
9.035,0.9352,-0.4504,0.007,1.038
9.036,0.9356,-0.4411,0.0109,1.034
9.036,0.9378,-0.4294,0.0153,1.032
9.036,0.9405,-0.418,0.0265,1.03
9.036,0.9447,-0.4082,0.0358,1.03
9.037,0.9489,-0.3979,0.0451,1.03
9.037,0.9526,-0.388,0.0563,1.03
9.037,0.9563,-0.3773,0.0686,1.03
9.037,0.9585,-0.3719,0.0784,1.031
9.037,0.9593,-0.3611,0.0936,1.0290000000000001
9.037,0.9605,-0.3533,0.1068,1.0290000000000001
9.038,0.9632,-0.344,0.1185,1.03
9.038,0.963,-0.3332,0.1298,1.0270000000000001
9.038,0.9642,-0.3225,0.143,1.0270000000000001
9.038,0.962,-0.3127,0.1542,1.023
9.038,0.9618,-0.3034,0.165,1.022
9.039,0.9582,-0.2961,0.1748,1.018
9.039,0.9541,-0.2878,0.1836,1.013
9.04,0.948,-0.2786,0.1948,1.0070000000000001
9.04,0.94,-0.2694,0.2036,0.9990000000000001
9.04,0.932,-0.2641,0.2134,0.992
9.04,0.9236,-0.2584,0.2227,0.985
9.041,0.9156,-0.2541,0.23,0.978
9.041,0.9068,-0.2512,0.231,0.9690000000000001
9.041,0.8988,-0.2489,0.2393,0.963
9.041,0.8885,-0.2456,0.2471,0.9540000000000001
9.042,0.8791,-0.2432,0.2535,0.9470000000000001
9.042,0.8722,-0.2404,0.2574,0.941
9.042,0.8638,-0.2381,0.2628,0.934
9.042,0.8569,-0.2371,0.2667,0.9279999999999999
9.042,0.8495,-0.2358,0.2691,0.922
9.043,0.8422,-0.2349,0.271,0.915
9.043,0.8348,-0.236,0.2744,0.91
9.043,0.8289,-0.236,0.2774,0.905
9.043,0.8216,-0.2381,0.2779,0.899
9.043,0.8137,-0.2392,0.2764,0.892
9.044,0.8089,-0.2431,0.2764,0.889
9.044,0.8016,-0.2461,0.2774,0.883
9.044,0.7959,-0.2497,0.2735,0.878
9.044,0.7915,-0.2541,0.2744,0.875
9.044,0.7852,-0.2586,0.2696,0.87
9.044,0.7824,-0.263,0.2671,0.868
9.045,0.7771,-0.2689,0.2622,0.863
9.045,0.7714,-0.2758,0.2563,0.858
9.045,0.769,-0.2802,0.2524,0.857
9.045,0.7652,-0.2857,0.2475,0.853
9.045,0.7624,-0.2921,0.2451,0.852
9.046,0.7616,-0.2999,0.2392,0.853
9.046,0.7593,-0.3078,0.2324,0.852
9.046,0.7569,-0.3142,0.2279,0.851
9.046,0.7542,-0.3235,0.2245,0.851
9.046,0.7503,-0.3285,0.2191,0.848
9.047,0.748,-0.3349,0.2172,0.848
9.047,0.7486,-0.3407,0.2133,0.85
9.047,0.7492,-0.3456,0.2133,0.852
9.047,0.7522,-0.349,0.2103,0.855
9.047,0.7551,-0.3534,0.2094,0.86
9.048,0.761,-0.3548,0.2103,0.866
9.048,0.7649,-0.3567,0.2103,0.87
9.048,0.7699,-0.3586,0.2103,0.875
9.048,0.7767,-0.3615,0.2128,0.883
9.048,0.7821,-0.3614,0.2162,0.888
9.048,0.7888,-0.3638,0.2206,0.8959999999999999
9.049,0.7932,-0.3642,0.2235,0.9009999999999999
9.05,0.8006,-0.3647,0.2265,0.9079999999999999
9.05,0.8083,-0.3626,0.2309,0.9159999999999999
9.05,0.8151,-0.365,0.2338,0.9229999999999999
9.053,0.8239,-0.3629,0.2392,0.932
9.054,0.8332,-0.3614,0.2446,0.941
9.057,0.8413,-0.3588,0.25,0.948
9.059,0.8491,-0.3568,0.2548,0.956
9.061,0.8603,-0.3523,0.2598,0.965
9.067,0.8719,-0.3511,0.2632,0.976
9.068,0.8826,-0.3476,0.2676,0.986
9.074,0.8923,-0.3435,0.27,0.9940000000000001
9.075,0.9025,-0.34,0.274,1.003
9.075,0.9131,-0.334,0.2774,1.011
9.082,0.9234,-0.331,0.2794,1.02
9.083,0.9322,-0.327,0.2818,1.0270000000000001
9.083,0.9413,-0.3225,0.2848,1.035
9.083,0.9516,-0.3199,0.2862,1.044
9.087,0.9607,-0.3139,0.2906,1.052
9.088,0.9719,-0.3079,0.2931,1.061
9.092,0.9791,-0.2995,0.2917,1.065
9.093,0.9898,-0.292,0.2926,1.073
9.097,0.9985,-0.2845,0.2921,1.079
9.098,1.0038,-0.2766,0.2917,1.081
9.1,1.014,-0.2711,0.2921,1.09
9.103,1.0193,-0.2647,0.2907,1.093
9.107,1.0261,-0.2578,0.2897,1.097
9.108,1.0339,-0.2523,0.2877,1.102
9.11,1.0411,-0.2483,0.2878,1.1079999999999999
9.113,1.0485,-0.2443,0.2873,1.114
9.115,1.0563,-0.2403,0.2868,1.121
9.118,1.0625,-0.2363,0.2873,1.126
9.12,1.0699,-0.2333,0.2854,1.1320000000000001
9.123,1.0757,-0.2298,0.2873,1.137
9.125,1.0815,-0.2268,0.2873,1.1420000000000001
9.127,1.0883,-0.2228,0.2868,1.147
9.134,1.0951,-0.2188,0.2883,1.153
9.134,1.1039,-0.2177,0.2883,1.161
9.135,1.1126,-0.2132,0.2913,1.17
9.137,1.1214,-0.2116,0.2903,1.178
9.14,1.1316,-0.21,0.2903,1.187
9.151,1.1399,-0.209,0.2942,1.196
9.151,1.1526,-0.2098,0.2947,1.208
9.151,1.1615,-0.2141,0.2967,1.218
9.151,1.1718,-0.2145,0.2991,1.228
9.155,1.1815,-0.2163,0.3015,1.238
9.155,1.1918,-0.2182,0.3045,1.249
9.157,1.203,-0.2205,0.3075,1.261
9.159,1.2142,-0.2224,0.3119,1.273
9.162,1.2249,-0.2208,0.3149,1.284
9.164,1.2337,-0.2236,0.3188,1.294
9.167,1.2434,-0.2225,0.3232,1.304
9.169,1.2542,-0.2229,0.3275,1.315
9.172,1.2634,-0.2243,0.334,1.3259999999999998
9.175,1.2746,-0.2251,0.3384,1.338
9.177,1.2839,-0.2265,0.3442,1.348
9.179,1.2913,-0.2298,0.3481,1.357
9.181,1.2976,-0.2322,0.353,1.365
9.184,1.3063,-0.2326,0.3554,1.374
9.187,1.3142,-0.233,0.3545,1.381
9.189,1.3225,-0.2334,0.3545,1.389
9.191,1.3318,-0.2338,0.3535,1.3980000000000001
9.194,1.3435,-0.2332,0.3521,1.4080000000000001
9.198,1.3538,-0.2355,0.3492,1.4180000000000001
9.199,1.3671,-0.2387,0.3453,1.43
9.201,1.379,-0.245,0.3409,1.4409999999999998
9.204,1.3948,-0.2536,0.3389,1.4580000000000002
9.206,1.411,-0.2627,0.335,1.474
9.209,1.4264,-0.2747,0.3326,1.49
9.212,1.4431,-0.2883,0.3306,1.508
9.213,1.4605,-0.3037,0.3291,1.528
9.216,1.4723,-0.3154,0.3296,1.541
9.219,1.4852,-0.33,0.3316,1.557
9.221,1.4961,-0.3421,0.3335,1.57
9.223,1.505,-0.3503,0.3379,1.5819999999999999
9.226,1.5128,-0.3561,0.3394,1.591
9.228,1.5167,-0.3595,0.3453,1.5959999999999999
9.231,1.5191,-0.3531,0.3487,1.598
9.233,1.5219,-0.3492,0.3482,1.6
9.235,1.5273,-0.3457,0.3516,1.605
9.238,1.529,-0.3369,0.3609,1.607
9.24,1.5278,-0.3241,0.3673,1.604
9.245,1.5271,-0.3099,0.3692,1.601
9.249,1.526,-0.2937,0.3707,1.598
9.25,1.5189,-0.2718,0.3722,1.587
9.25,1.5136,-0.2459,0.3736,1.578
9.259,1.504,-0.2186,0.3761,1.5659999999999998
9.26,1.4919,-0.1864,0.3786,1.55
9.26,1.4778,-0.1513,0.3805,1.5330000000000001
9.261,1.4607,-0.1182,0.381,1.514
9.263,1.4452,-0.0846,0.3805,1.4969999999999999
9.265,1.4278,-0.05,0.3771,1.4780000000000002
9.267,1.4118,-0.0193,0.3752,1.4609999999999999
9.27,1.3963,0.0129,0.3693,1.444
9.272,1.3823,0.0397,0.3625,1.43
9.275,1.3708,0.067,0.3537,1.4169999999999998
9.277,1.3579,0.0913,0.342,1.403
9.28,1.349,0.1143,0.3312,1.3940000000000001
9.282,1.3386,0.1337,0.3195,1.383
9.284,1.3312,0.1509,0.3087,1.375
9.287,1.3248,0.1636,0.294,1.367
9.289,1.3189,0.1767,0.2838,1.361
9.292,1.316,0.1845,0.2715,1.3559999999999999
9.294,1.3141,0.1895,0.2593,1.3530000000000002
9.298,1.3137,0.1909,0.25,1.351
9.299,1.3172,0.19,0.2412,1.3530000000000002
9.302,1.3208,0.1851,0.2349,1.354
9.304,1.3262,0.1813,0.2305,1.358
9.307,1.3322,0.1731,0.2276,1.3630000000000002
9.309,1.3353,0.1633,0.2217,1.3630000000000002
9.312,1.3379,0.1526,0.2183,1.364
9.314,1.3396,0.1378,0.2197,1.364
9.316,1.3411,0.1232,0.2236,1.365
9.319,1.3447,0.1055,0.2304,1.368
9.537,1.3473,0.086,0.2387,1.371
9.537,1.3504,0.0635,0.2461,1.374
9.538,1.354,0.04,0.2509,1.3780000000000001
9.538,1.3553,0.0155,0.2548,1.379
9.538,1.3546,-0.0075,0.2563,1.379
9.538,1.3529,-0.033,0.2597,1.3780000000000001
9.539,1.3492,-0.0556,0.2617,1.375
9.539,1.3446,-0.0776,0.2597,1.3719999999999999
9.539,1.3414,-0.0964,0.2602,1.37
9.539,1.3357,-0.1146,0.2602,1.3659999999999999
9.54,1.333,-0.1308,0.2587,1.364
9.54,1.3311,-0.1425,0.2611,1.364
9.54,1.3273,-0.1558,0.2631,1.3619999999999999
9.54,1.3261,-0.171,0.2602,1.3619999999999999
9.541,1.3248,-0.1817,0.2547,1.361
9.541,1.3201,-0.1941,0.2489,1.357
9.541,1.3164,-0.2069,0.2435,1.355
9.541,1.3102,-0.2157,0.2386,1.349
9.542,1.3059,-0.2231,0.2352,1.3459999999999999
9.542,1.3007,-0.2295,0.2307,1.341
9.542,1.2968,-0.2345,0.2278,1.337
9.542,1.293,-0.2365,0.2229,1.3330000000000002
9.543,1.2886,-0.2385,0.2215,1.329
9.543,1.2848,-0.2425,0.218,1.3259999999999998
9.543,1.2805,-0.2439,0.2156,1.321
9.543,1.277,-0.2435,0.2136,1.317
9.544,1.2701,-0.2436,0.2122,1.311
9.544,1.2653,-0.2446,0.2092,1.306
9.544,1.2581,-0.2437,0.2019,1.297
9.544,1.2527,-0.2403,0.195,1.29
9.544,1.2478,-0.2389,0.1901,1.285
9.545,1.241,-0.2356,0.1837,1.276
9.545,1.2371,-0.2326,0.1789,1.271
9.545,1.2308,-0.2288,0.173,1.264
9.545,1.2254,-0.2254,0.1691,1.2570000000000001
9.546,1.2225,-0.2205,0.1642,1.253
9.546,1.2156,-0.2177,0.1598,1.245
9.546,1.2122,-0.2147,0.153,1.2409999999999999
9.546,1.2083,-0.2114,0.1505,1.236
9.546,1.202,-0.2071,0.1446,1.228
9.547,1.1966,-0.2052,0.1412,1.222
9.547,1.1932,-0.2017,0.1368,1.218
9.547,1.1873,-0.1984,0.1309,1.2109999999999999
9.547,1.1834,-0.1954,0.1265,1.206
9.547,1.1795,-0.1935,0.1236,1.202
9.548,1.1752,-0.1911,0.1177,1.196
9.548,1.1703,-0.1897,0.1148,1.1909999999999998
9.548,1.1669,-0.1902,0.1109,1.188
9.548,1.1626,-0.1912,0.106,1.183
9.548,1.1581,-0.1912,0.1011,1.178
9.549,1.1553,-0.1947,0.0962,1.176
9.549,1.1529,-0.1982,0.0913,1.173
9.549,1.1481,-0.2007,0.0894,1.169
9.549,1.1457,-0.2042,0.0869,1.167
9.549,1.1429,-0.2096,0.0834,1.165
9.549,1.142,-0.2135,0.0815,1.165
9.55,1.1411,-0.2189,0.0781,1.165
9.55,1.1402,-0.2238,0.0747,1.1640000000000001
9.55,1.1398,-0.2287,0.0722,1.165
9.55,1.137,-0.2351,0.0717,1.163
9.551,1.137,-0.2415,0.0707,1.165
9.551,1.1346,-0.2464,0.0692,1.163
9.551,1.1323,-0.2518,0.0702,1.162
9.551,1.1324,-0.2581,0.0697,1.1640000000000001
9.551,1.129,-0.2636,0.0692,1.161
9.552,1.1295,-0.2685,0.0712,1.163
9.552,1.1272,-0.2754,0.0712,1.163
9.552,1.1273,-0.2817,0.0712,1.1640000000000001
9.552,1.1249,-0.2876,0.0707,1.163
9.552,1.1235,-0.2945,0.0702,1.1640000000000001
9.553,1.1221,-0.3014,0.0726,1.1640000000000001
9.553,1.1193,-0.3092,0.0731,1.163
9.553,1.1154,-0.3167,0.0726,1.162
9.553,1.1121,-0.3246,0.0746,1.161
9.553,1.1102,-0.3315,0.078,1.161
9.554,1.1078,-0.3388,0.0814,1.161
9.554,1.1034,-0.3462,0.0838,1.16
9.554,1.0995,-0.3541,0.0902,1.159
9.554,1.0947,-0.36,0.0956,1.156
9.554,1.0908,-0.367,0.0995,1.155
9.555,1.0849,-0.3714,0.1029,1.151
9.555,1.0792,-0.3783,0.1073,1.149
9.555,1.0727,-0.3809,0.1137,1.1440000000000001
9.555,1.0659,-0.3834,0.1181,1.139
9.556,1.0591,-0.3879,0.1229,1.135
9.556,1.0517,-0.3905,0.1268,1.129
9.556,1.0428,-0.391,0.1312,1.121
9.556,1.0359,-0.3936,0.1371,1.117
9.556,1.0296,-0.3956,0.142,1.112
9.557,1.0202,-0.3977,0.1488,1.105
9.557,1.0149,-0.4012,0.1547,1.102
9.557,1.0094,-0.4057,0.162,1.1
9.557,1.0046,-0.4092,0.1669,1.097
9.557,0.9953,-0.4133,0.1737,1.092
9.558,0.9879,-0.4158,0.1801,1.087
9.558,0.9801,-0.4193,0.1845,1.082
9.558,0.9728,-0.4243,0.1908,1.078
9.56,0.9654,-0.4264,0.1928,1.073
9.562,0.9591,-0.4304,0.1933,1.069
9.564,0.9533,-0.4344,0.1947,1.0659999999999998
9.568,0.9455,-0.4369,0.1986,1.06
9.569,0.9367,-0.4385,0.2006,1.054
9.572,0.9328,-0.4439,0.2036,1.053
9.574,0.9269,-0.4469,0.206,1.0490000000000002
9.577,0.919,-0.4509,0.2089,1.045
9.581,0.9142,-0.4535,0.2099,1.042
9.582,0.9079,-0.4545,0.2099,1.037
9.585,0.9015,-0.4565,0.2089,1.032
9.587,0.8933,-0.4596,0.2099,1.026
9.603,0.8869,-0.4631,0.2084,1.022
9.604,0.8841,-0.4665,0.2079,1.021
9.604,0.8777,-0.4686,0.2079,1.016
9.604,0.873,-0.4735,0.205,1.014
9.604,0.8696,-0.478,0.202,1.013
9.605,0.8663,-0.4834,0.1976,1.012
9.605,0.8639,-0.4839,0.1927,1.0090000000000001
9.606,0.862,-0.4892,0.1873,1.0090000000000001
9.608,0.8568,-0.4957,0.1829,1.0070000000000001
9.612,0.8564,-0.5001,0.179,1.008
9.613,0.8546,-0.506,0.1731,1.008
9.616,0.8527,-0.5129,0.1702,1.0090000000000001
9.618,0.8534,-0.5197,0.1624,1.012
9.622,0.852,-0.5261,0.1575,1.014
9.627,0.8502,-0.5315,0.1531,1.014
9.627,0.8498,-0.5373,0.1477,1.016
9.628,0.8509,-0.5428,0.1438,1.0190000000000001
9.631,0.8515,-0.5467,0.1394,1.021
9.644,0.854,-0.551,0.1355,1.025
9.644,0.8556,-0.5549,0.1306,1.028
9.644,0.8566,-0.5583,0.1267,1.03
9.644,0.8567,-0.5632,0.1213,1.032
9.645,0.8578,-0.5666,0.1159,1.035
9.647,0.8563,-0.5706,0.112,1.035
9.648,0.8574,-0.5745,0.1071,1.038
9.65,0.8585,-0.5754,0.1018,1.038
9.653,0.86,-0.5773,0.0958,1.04
9.655,0.8601,-0.5798,0.0924,1.041
9.658,0.8596,-0.5812,0.09,1.042
9.66,0.8621,-0.5842,0.087,1.045
9.662,0.8632,-0.5847,0.0845,1.046
9.665,0.8612,-0.5842,0.0811,1.044
9.668,0.8613,-0.5851,0.0782,1.044
9.67,0.8608,-0.5851,0.0758,1.044
9.672,0.8593,-0.5847,0.0723,1.042
9.675,0.8574,-0.5817,0.0665,1.038
9.677,0.8555,-0.5803,0.064,1.036
9.68,0.8526,-0.5793,0.0596,1.033
9.682,0.8492,-0.5779,0.0562,1.0290000000000001
9.685,0.8463,-0.577,0.0538,1.026
9.687,0.8443,-0.5755,0.0523,1.023
9.691,0.8438,-0.5716,0.0518,1.02
9.692,0.8383,-0.5697,0.0528,1.015
9.694,0.8383,-0.5663,0.0533,1.013
9.697,0.8349,-0.5643,0.0562,1.0090000000000001
9.699,0.8294,-0.561,0.0587,1.003
9.707,0.826,-0.5571,0.0587,0.998
9.708,0.8234,-0.5532,0.064,0.9940000000000001
9.708,0.8219,-0.5483,0.0684,0.99
9.709,0.8218,-0.5454,0.0709,0.9890000000000001
9.712,0.8252,-0.5425,0.0753,0.99
9.716,0.8294,-0.5394,0.0797,0.993
9.717,0.8387,-0.5378,0.0836,1.0
9.719,0.8465,-0.5392,0.0866,1.0070000000000001
9.721,0.8578,-0.5421,0.0871,1.018
9.729,0.872,-0.5468,0.0876,1.033
9.729,0.8863,-0.555,0.0871,1.0490000000000002
9.73,0.8971,-0.5646,0.0831,1.063
9.732,0.9065,-0.5695,0.0822,1.074
9.734,0.9145,-0.5801,0.0792,1.0859999999999999
9.736,0.9205,-0.5937,0.0763,1.0979999999999999
9.739,0.9275,-0.6083,0.0763,1.112
9.741,0.9311,-0.6201,0.0773,1.121
9.743,0.9333,-0.6352,0.0801,1.1320000000000001
9.746,0.9353,-0.646,0.0845,1.14
9.749,0.9309,-0.6539,0.087,1.141
9.751,0.9271,-0.6647,0.0861,1.1440000000000001
9.753,0.9104,-0.663,0.0885,1.13
9.756,0.9057,-0.6782,0.088,1.135
9.76,0.8981,-0.692,0.085,1.137
9.761,0.8905,-0.7058,0.0811,1.139
9.763,0.8824,-0.7177,0.0767,1.14
9.765,0.8772,-0.726,0.0713,1.141
9.769,0.8739,-0.7324,0.0664,1.1420000000000001
9.771,0.8695,-0.7354,0.0635,1.141
9.773,0.8676,-0.7384,0.0576,1.141
9.775,0.8662,-0.7393,0.0513,1.14
9.778,0.8609,-0.735,0.0474,1.133
9.781,0.8495,-0.7248,0.0468,1.1179999999999999
9.783,0.8372,-0.7132,0.0468,1.101
9.785,0.8208,-0.6978,0.0483,1.078
9.788,0.802,-0.6828,0.0512,1.055
9.792,0.7822,-0.6654,0.0581,1.0290000000000001
9.793,0.7623,-0.647,0.0654,1.002
9.795,0.7454,-0.6271,0.0703,0.977
9.797,0.7315,-0.6072,0.0737,0.9540000000000001
9.8,0.721,-0.5883,0.083,0.934
9.803,0.7163,-0.5687,0.0909,0.919
9.805,0.7135,-0.5507,0.0977,0.907
9.807,0.7122,-0.5315,0.106,0.895
9.81,0.7109,-0.5134,0.1183,0.885
